<svg width="23" height="15" viewBox="0 0 23 15" fill="none" xmlns="http://www.w3.org/2000/svg">
<path fill-rule="evenodd" clip-rule="evenodd" d="M22.7471 7.4051C22.7471 7.61996 22.6617 7.82602 22.5098 7.97795C22.3579 8.12988 22.1518 8.21523 21.9369 8.21523H2.8293L7.92824 13.3125C8.08036 13.4647 8.16582 13.671 8.16582 13.8861C8.16582 14.1012 8.08036 14.3076 7.92824 14.4597C7.77612 14.6118 7.5698 14.6973 7.35467 14.6973C7.13954 14.6973 6.93322 14.6118 6.7811 14.4597L0.300084 7.97867C0.22464 7.90342 0.164783 7.81402 0.123943 7.7156C0.0831018 7.61718 0.0620793 7.51166 0.0620793 7.4051C0.0620793 7.29854 0.0831018 7.19303 0.123943 7.09461C0.164783 6.99619 0.22464 6.90679 0.300084 6.83153L6.7811 0.350523C6.93322 0.198403 7.13954 0.112943 7.35467 0.112943C7.5698 0.112943 7.77612 0.198403 7.92824 0.350523C8.08036 0.502643 8.16582 0.708962 8.16582 0.924092C8.16582 1.13922 8.08036 1.34554 7.92824 1.49766L2.8293 6.59498H21.9369C22.1518 6.59498 22.3579 6.68033 22.5098 6.83226C22.6617 6.98419 22.7471 7.19025 22.7471 7.4051V7.4051Z" fill="#282D31"/>
</svg>
