<svg width="18" height="17" viewBox="0 0 18 17" fill="none" xmlns="http://www.w3.org/2000/svg">
<path d="M4.14363 13.6213L0.942383 16.8213H17.0311V0.734375L4.14363 13.6206V13.6213ZM11.6886 6.54875C11.7437 6.49379 11.8183 6.46292 11.8961 6.46292C11.9739 6.46292 12.0486 6.49379 12.1036 6.54875L12.8286 7.27375C12.8834 7.32845 12.9142 7.40267 12.9143 7.48009C12.9143 7.55751 12.8836 7.63178 12.8289 7.68656C12.7742 7.74135 12.7 7.77216 12.6226 7.77221C12.5452 7.77227 12.4709 7.74158 12.4161 7.68687L11.6886 6.96187C11.6615 6.93471 11.6399 6.90246 11.6252 6.86697C11.6105 6.83147 11.6029 6.79342 11.6029 6.755C11.6029 6.71658 11.6105 6.67853 11.6252 6.64303C11.6399 6.60754 11.6615 6.57529 11.6886 6.54813V6.54875ZM10.6886 7.55125C10.7156 7.52404 10.7478 7.50244 10.7832 7.4877C10.8186 7.47297 10.8565 7.46538 10.8949 7.46538C10.9332 7.46538 10.9712 7.47297 11.0066 7.4877C11.042 7.50244 11.0741 7.52404 11.1011 7.55125L12.4493 8.8975C12.4765 8.92451 12.4981 8.95665 12.5128 8.99204C12.5275 9.02744 12.5351 9.06541 12.5351 9.10375C12.5351 9.14209 12.5275 9.18006 12.5128 9.21546C12.4981 9.25085 12.4765 9.28299 12.4493 9.31C12.4224 9.33777 12.3903 9.35989 12.3548 9.37505C12.3193 9.39022 12.2811 9.39812 12.2425 9.3983C12.2038 9.39847 12.1656 9.39091 12.1299 9.37607C12.0943 9.36123 12.062 9.3394 12.0349 9.31188L10.6874 7.96625C10.6325 7.91129 10.6016 7.83676 10.6016 7.75906C10.6016 7.68136 10.6325 7.60684 10.6874 7.55188L10.6886 7.55125ZM9.68551 8.55125C9.74074 8.49659 9.8153 8.46594 9.89301 8.46594C9.97071 8.46594 10.0453 8.49659 10.1005 8.55125L10.8255 9.2775C10.8669 9.31822 10.8952 9.37036 10.9069 9.42727C10.9185 9.48417 10.9128 9.54324 10.8907 9.59693C10.8686 9.65062 10.8309 9.69648 10.7825 9.72865C10.7342 9.76081 10.6773 9.77782 10.6193 9.7775C10.5806 9.77756 10.5423 9.76997 10.5066 9.75517C10.4709 9.74037 10.4384 9.71864 10.4111 9.69125L9.68613 8.96625C9.63114 8.91107 9.60025 8.83634 9.60025 8.75844C9.60025 8.68053 9.63114 8.6058 9.68613 8.55062L9.68551 8.55125ZM8.68551 9.55375C8.74072 9.49915 8.8153 9.46863 8.89295 9.46886C8.9706 9.4691 9.045 9.50006 9.09988 9.555L9.82363 10.28C9.8508 10.3073 9.87233 10.3396 9.887 10.3752C9.90168 10.4107 9.9092 10.4488 9.90914 10.4873C9.90908 10.5258 9.90145 10.5639 9.88667 10.5994C9.87189 10.6349 9.85026 10.6672 9.82301 10.6944C9.79576 10.7215 9.76342 10.7431 9.72785 10.7577C9.69228 10.7724 9.65417 10.7799 9.61569 10.7799C9.57721 10.7798 9.53912 10.7722 9.5036 10.7574C9.46807 10.7426 9.4358 10.721 9.40863 10.6937L8.68488 9.96875C8.62992 9.91368 8.59906 9.83905 8.59906 9.76125C8.59906 9.68345 8.62992 9.60882 8.68488 9.55375H8.68551ZM7.68301 10.5562C7.71014 10.5289 7.74242 10.5072 7.77798 10.4924C7.81353 10.4776 7.85167 10.47 7.8902 10.47C7.92872 10.47 7.96686 10.4776 8.00241 10.4924C8.03797 10.5072 8.07025 10.5289 8.09738 10.5562L9.44363 11.9019C9.47197 11.9289 9.49463 11.9613 9.51027 11.9972C9.52591 12.0331 9.53421 12.0717 9.5347 12.1109C9.53518 12.15 9.52784 12.1889 9.51309 12.2251C9.49835 12.2614 9.4765 12.2944 9.44884 12.3221C9.42118 12.3498 9.38826 12.3717 9.35201 12.3865C9.31576 12.4013 9.27692 12.4087 9.23777 12.4083C9.19862 12.4078 9.15996 12.3996 9.12404 12.384C9.08812 12.3684 9.05569 12.3458 9.02863 12.3175L7.68301 10.9706C7.62809 10.9157 7.59724 10.8411 7.59724 10.7634C7.59724 10.6857 7.62809 10.6112 7.68301 10.5562ZM6.43926 15.3206C6.41217 15.348 6.37994 15.3697 6.34443 15.3846C6.30892 15.3995 6.27083 15.4072 6.23233 15.4073C6.19383 15.4074 6.15569 15.3999 6.12009 15.3853C6.08449 15.3706 6.05214 15.3491 6.02488 15.3219L4.67863 13.9762C4.65142 13.9491 4.62983 13.9168 4.61509 13.8813C4.60035 13.8458 4.59275 13.8077 4.59272 13.7693C4.59269 13.7308 4.60024 13.6928 4.61492 13.6572C4.62961 13.6217 4.65115 13.5894 4.67832 13.5622C4.70549 13.535 4.73775 13.5134 4.77326 13.4986C4.80877 13.4839 4.84684 13.4763 4.88529 13.4763C4.92374 13.4762 4.96181 13.4838 4.99735 13.4985C5.03288 13.5132 5.06517 13.5347 5.09238 13.5619L6.43863 14.9081C6.46584 14.9351 6.48744 14.9673 6.50218 15.0027C6.51692 15.0381 6.5245 15.076 6.5245 15.1144C6.5245 15.1527 6.51692 15.1907 6.50218 15.2261C6.48744 15.2615 6.46584 15.2936 6.43863 15.3206H6.43926ZM6.82051 13.6975C6.76517 13.753 6.69015 13.7845 6.61176 13.785C6.57336 13.7851 6.53533 13.7776 6.49991 13.7627C6.46448 13.7479 6.43238 13.7262 6.40551 13.6987L5.67863 12.9738C5.65135 12.9468 5.62968 12.9147 5.6149 12.8793C5.60011 12.8439 5.5925 12.8059 5.5925 12.7675C5.5925 12.7291 5.60011 12.6911 5.6149 12.6557C5.62968 12.6203 5.65135 12.5882 5.67863 12.5613C5.70561 12.5336 5.73779 12.5117 5.77332 12.4966C5.80885 12.4815 5.84702 12.4736 5.88561 12.4734C5.92421 12.4732 5.96246 12.4806 5.99817 12.4952C6.03388 12.5099 6.06632 12.5315 6.09363 12.5588L6.81988 13.285C6.84709 13.312 6.86869 13.3441 6.88343 13.3795C6.89817 13.4149 6.90575 13.4529 6.90575 13.4912C6.90575 13.5296 6.89817 13.5676 6.88343 13.603C6.86869 13.6384 6.84709 13.6705 6.81988 13.6975H6.82051ZM7.82051 12.6962C7.79347 12.7236 7.76126 12.7454 7.72575 12.7603C7.69024 12.7751 7.65213 12.7828 7.61363 12.7828C7.57514 12.7828 7.53703 12.7751 7.50152 12.7603C7.466 12.7454 7.43379 12.7236 7.40676 12.6962L6.68176 11.9713C6.62689 11.9162 6.59613 11.8416 6.59625 11.7639C6.59637 11.6862 6.62735 11.6117 6.68238 11.5569C6.73742 11.502 6.81199 11.4713 6.8897 11.4714C6.96741 11.4715 7.04189 11.5025 7.09676 11.5575L7.82176 12.2825C7.87634 12.3375 7.90696 12.4119 7.90696 12.4894C7.90696 12.5669 7.87634 12.6412 7.82176 12.6962H7.82051ZM13.9061 13.6962H8.48738L13.9061 8.2775V13.6962ZM13.8311 6.68625C13.8043 6.71367 13.7722 6.73543 13.7367 6.75024C13.7013 6.76506 13.6633 6.77262 13.6249 6.7725C13.5466 6.77251 13.4716 6.7415 13.4161 6.68625L12.6911 5.96125C12.664 5.93408 12.6424 5.90183 12.6277 5.86633C12.613 5.83084 12.6054 5.7928 12.6054 5.75437C12.6054 5.71595 12.613 5.67791 12.6277 5.64242C12.6424 5.60692 12.664 5.57467 12.6911 5.5475C12.7183 5.52033 12.7506 5.49878 12.786 5.48408C12.8215 5.46938 12.8596 5.46181 12.898 5.46181C12.9364 5.46181 12.9745 5.46938 13.01 5.48408C13.0455 5.49878 13.0777 5.52033 13.1049 5.5475L13.8299 6.2725C13.9449 6.38688 13.9455 6.5725 13.8311 6.68625ZM15.4536 6.30625C15.3986 6.3609 15.3242 6.39151 15.2466 6.3914C15.1691 6.39128 15.0947 6.36044 15.0399 6.30562L13.6936 4.96C13.6388 4.90497 13.608 4.83039 13.6081 4.75268C13.6082 4.67497 13.6392 4.60049 13.6943 4.54562C13.7493 4.49076 13.8239 4.46 13.9016 4.46012C13.9793 4.46023 14.0538 4.49122 14.1086 4.54625L15.4549 5.8925C15.5693 6.00688 15.5674 6.1925 15.4536 6.30625Z" fill="#E50039"/>
</svg>
