<svg width="437" height="312" viewBox="0 0 437 312" fill="none" xmlns="http://www.w3.org/2000/svg">
<path d="M79.4185 285.313C157.924 319.895 285.253 319.895 363.77 285.313C442.286 250.73 442.275 194.664 363.77 160.1C285.264 125.536 157.946 125.518 79.4185 160.1C0.891569 194.682 0.902317 250.74 79.4185 285.313Z" fill="#F5F5F5"/>
<path d="M153.237 278.91L47.7492 227.594C47.5213 227.532 47.3225 227.411 47.1814 227.248C47.0404 227.085 46.9644 226.889 46.9644 226.687C46.9644 226.486 47.0404 226.289 47.1814 226.126C47.3225 225.963 47.5213 225.842 47.7492 225.781L166.336 168.065C166.914 167.819 167.553 167.691 168.201 167.691C168.849 167.691 169.488 167.819 170.067 168.065L275.576 219.381C276.652 219.889 276.652 220.695 275.576 221.194L156.958 278.91C156.381 279.156 155.744 279.284 155.097 279.284C154.451 279.284 153.814 279.156 153.237 278.91Z" fill="#EBEBEB"/>
<path d="M388.891 208.682L383.643 206.488C383.787 200.887 384.693 195.318 386.342 189.891C390.256 177.717 402.344 168.217 411.636 167.627C423.627 166.866 420.594 175.886 413.421 179.348C401.957 184.851 392.547 193.87 388.891 208.682Z" fill="#FF5680"/>
<g opacity="0.2">
<path opacity="0.2" d="M388.891 208.682L383.643 206.488C383.787 200.887 384.693 195.318 386.342 189.891C390.256 177.717 402.344 168.217 411.636 167.627C423.627 166.866 420.594 175.886 413.421 179.348C401.957 184.851 392.547 193.87 388.891 208.682Z" fill="black"/>
</g>
<path d="M388.053 204.584H388.118C388.194 204.579 388.268 204.56 388.335 204.53C388.402 204.5 388.462 204.459 388.51 204.409C388.558 204.359 388.594 204.302 388.615 204.24C388.637 204.178 388.643 204.113 388.634 204.05C387.397 193.67 399.324 175.45 413.229 171.044C413.3 171.022 413.365 170.988 413.42 170.945C413.476 170.901 413.52 170.849 413.551 170.791C413.582 170.732 413.599 170.669 413.601 170.606C413.603 170.542 413.59 170.478 413.562 170.419C413.509 170.298 413.401 170.199 413.262 170.145C413.123 170.091 412.964 170.085 412.82 170.129C398.496 174.661 386.204 193.444 387.483 204.149C387.499 204.268 387.566 204.378 387.671 204.458C387.776 204.538 387.912 204.583 388.053 204.584Z" fill="white"/>
<path d="M385.721 207.149C385.635 205.654 385.721 203.478 385.721 202.943C385.787 201.061 386.31 199.21 387.259 197.504C388.512 195.238 390.649 193.401 393.313 192.301C394.765 191.721 396.421 191.395 397.432 190.316C398.186 189.341 398.651 188.228 398.787 187.071C399.25 185.258 400.142 183.291 402.013 182.284C403.885 181.278 406.315 181.378 408.466 181.777C411.617 182.294 414.553 182.874 417.661 181.858C420.143 180.972 422.69 180.218 425.285 179.601C428.512 178.921 435.814 178.124 436.932 181.994C437.045 182.528 437.017 183.076 436.85 183.599C436.683 184.123 436.38 184.609 435.964 185.022C435.119 185.836 434.137 186.541 433.05 187.116L427.673 190.243C427.046 190.569 426.489 190.983 426.027 191.467C424.952 192.782 425.425 194.604 425.049 196.19C424.831 196.994 424.408 197.748 423.81 198.401C423.213 199.054 422.454 199.589 421.586 199.97C419.836 200.723 417.844 200.978 415.908 200.695C413.316 200.36 409.251 198.366 407.401 200.84C406.857 201.687 406.493 202.607 406.326 203.56C406.161 204.514 405.693 205.413 404.971 206.161C403.831 207.177 402.003 207.367 400.336 207.385C398.011 207.262 395.678 207.405 393.399 207.811C392.474 208.038 391.818 208.962 391.248 209.561C389.84 208.89 388.119 208.21 385.721 207.149Z" fill="#FF5680"/>
<path d="M387.28 206.487C387.195 206.486 387.111 206.47 387.033 206.441C386.906 206.387 386.81 206.293 386.766 206.179C386.721 206.065 386.732 205.941 386.796 205.834C394.915 192.327 417.273 183.861 430.318 181.459C430.387 181.445 430.458 181.444 430.527 181.454C430.596 181.464 430.662 181.486 430.722 181.518C430.781 181.55 430.832 181.592 430.871 181.641C430.911 181.69 430.939 181.745 430.953 181.803C430.968 181.861 430.97 181.922 430.958 181.981C430.946 182.04 430.921 182.096 430.883 182.147C430.845 182.197 430.795 182.241 430.737 182.275C430.679 182.31 430.613 182.334 430.544 182.347C417.703 184.704 395.711 193.016 387.753 206.242C387.708 206.315 387.64 206.377 387.557 206.42C387.473 206.463 387.378 206.486 387.28 206.487Z" fill="white"/>
<path d="M418.682 193.709C418.561 193.708 418.443 193.673 418.348 193.609C414.176 190.79 407.981 189.929 407.917 189.92C407.847 189.91 407.78 189.889 407.72 189.857C407.659 189.825 407.607 189.783 407.566 189.734C407.525 189.686 407.496 189.63 407.481 189.572C407.465 189.513 407.464 189.453 407.476 189.394C407.486 189.335 407.511 189.279 407.547 189.228C407.584 189.178 407.632 189.134 407.689 189.099C407.747 189.065 407.811 189.04 407.88 189.027C407.949 189.014 408.02 189.012 408.089 189.022C408.358 189.022 414.627 189.929 419.015 192.902C419.126 192.977 419.197 193.086 419.213 193.204C419.229 193.323 419.189 193.443 419.101 193.537C419.051 193.59 418.987 193.633 418.914 193.662C418.842 193.692 418.762 193.708 418.682 193.709Z" fill="white"/>
<path d="M403.936 191.815H403.775C403.639 191.778 403.527 191.697 403.463 191.59C403.398 191.483 403.387 191.359 403.431 191.244C404.07 189.002 404.327 186.695 404.194 184.391C404.183 184.271 404.229 184.152 404.321 184.06C404.414 183.968 404.546 183.911 404.689 183.902C404.832 183.892 404.973 183.931 405.082 184.009C405.191 184.087 405.258 184.199 405.27 184.319C405.405 186.739 405.13 189.162 404.452 191.516C404.414 191.605 404.344 191.682 404.251 191.736C404.159 191.789 404.048 191.817 403.936 191.815Z" fill="white"/>
<path d="M20.2929 196.951C20.1475 196.231 19.8091 195.549 19.3035 194.956C18.4079 194.132 17.1822 193.615 15.8622 193.506C14.5522 193.401 13.2493 193.241 11.9584 193.026C10.9823 192.803 10.0681 192.42 9.2686 191.899C8.46908 191.377 7.80005 190.727 7.30013 189.986C6.80021 189.245 6.4793 188.428 6.35593 187.582C6.23255 186.736 6.30916 185.878 6.58131 185.058C6.9362 184.006 7.65673 183.036 7.94709 181.985C8.85044 179.211 6.31246 178.05 3.9788 176.718C2.35492 175.811 -0.32287 174.424 0.0320182 172.457C0.666515 168.786 7.076 167.862 13.2166 169.33C19.3573 170.799 22.6158 171.959 27.1971 170.916C31.7783 169.874 35.994 169.647 38.3922 173.092C40.7903 176.537 38.3922 179.764 41.4679 182.157C44.5435 184.55 50.0712 182.909 52.093 188.131V219.214C52.093 219.033 51.0176 218.425 50.8778 218.307L47.587 215.806C46.5116 215.035 45.0598 214.319 44.3607 213.331C43.3713 211.962 42.8767 210.339 41.855 208.962C40.7112 207.302 39.0532 205.936 37.0586 205.009C33.1441 203.314 28.4553 203.604 24.4225 201.954C22.9688 201.4 21.7872 200.44 21.0779 199.235C20.732 198.496 20.4692 197.731 20.2929 196.951Z" fill="#FF5680"/>
<path opacity="0.1" d="M20.2929 196.951C20.1475 196.231 19.8091 195.549 19.3035 194.956C18.4079 194.132 17.1822 193.615 15.8622 193.506C14.5522 193.401 13.2493 193.241 11.9584 193.026C10.9823 192.803 10.0681 192.42 9.2686 191.899C8.46908 191.377 7.80005 190.727 7.30013 189.986C6.80021 189.245 6.4793 188.428 6.35593 187.582C6.23255 186.736 6.30916 185.878 6.58131 185.058C6.9362 184.006 7.65673 183.036 7.94709 181.985C8.85044 179.211 6.31246 178.05 3.9788 176.718C2.35492 175.811 -0.32287 174.424 0.0320182 172.457C0.666515 168.786 7.076 167.862 13.2166 169.33C19.3573 170.799 22.6158 171.959 27.1971 170.916C31.7783 169.874 35.994 169.647 38.3922 173.092C40.7903 176.537 38.3922 179.764 41.4679 182.157C44.5435 184.55 50.0712 182.909 52.093 188.131V219.214C52.093 219.033 51.0176 218.425 50.8778 218.307L47.587 215.806C46.5116 215.035 45.0598 214.319 44.3607 213.331C43.3713 211.962 42.8767 210.339 41.855 208.962C40.7112 207.302 39.0532 205.936 37.0586 205.009C33.1441 203.314 28.4553 203.604 24.4225 201.954C22.9688 201.4 21.7872 200.44 21.0779 199.235C20.732 198.496 20.4692 197.731 20.2929 196.951Z" fill="black"/>
<path d="M52.2978 212.451C52.1717 212.452 52.0493 212.416 51.9526 212.348C51.8559 212.279 51.7914 212.184 51.7708 212.079C47.8778 193.388 21.9065 176.119 6.442 172.892C6.37138 172.878 6.3048 172.852 6.24604 172.816C6.18729 172.78 6.13752 172.735 6.09957 172.682C6.06163 172.63 6.03625 172.572 6.02488 172.512C6.01352 172.451 6.01639 172.39 6.03334 172.33C6.05028 172.27 6.08097 172.214 6.12365 172.165C6.16633 172.115 6.22017 172.073 6.28208 172.041C6.34399 172.009 6.41277 171.988 6.4845 171.978C6.55622 171.969 6.62948 171.971 6.70009 171.986C22.4335 175.267 48.8565 192.835 52.8248 211.871C52.8387 211.929 52.8385 211.99 52.8243 212.048C52.8101 212.106 52.7821 212.162 52.7419 212.211C52.7018 212.26 52.6504 212.302 52.5907 212.333C52.531 212.365 52.4643 212.387 52.3946 212.397L52.2978 212.451Z" fill="white"/>
<path d="M15.5294 186.454C15.4472 186.453 15.3662 186.438 15.2919 186.408C15.2177 186.378 15.1519 186.335 15.0992 186.282C15.0119 186.186 14.9731 186.064 14.9912 185.944C15.0093 185.823 15.0828 185.714 15.196 185.638C18.9062 183.173 26.4449 182.439 29.4668 182.602C29.5384 182.605 29.6085 182.621 29.6729 182.647C29.7373 182.674 29.7948 182.711 29.8419 182.757C29.889 182.802 29.9248 182.855 29.9472 182.913C29.9696 182.97 29.9781 183.031 29.9722 183.091C29.9682 183.15 29.9501 183.208 29.919 183.262C29.888 183.315 29.8447 183.362 29.7915 183.401C29.7384 183.44 29.6766 183.469 29.6098 183.488C29.5429 183.506 29.4723 183.513 29.4022 183.508C26.3266 183.336 19.1858 184.143 15.8627 186.355C15.767 186.417 15.6502 186.452 15.5294 186.454Z" fill="white"/>
<path d="M32.6922 185.894C32.625 185.907 32.555 185.907 32.4878 185.894C32.4221 185.872 32.3622 185.839 32.3115 185.798C32.2608 185.756 32.2203 185.707 32.1923 185.652C32.1643 185.597 32.1494 185.538 32.1485 185.479C32.1475 185.419 32.1605 185.36 32.1867 185.305C34.1547 181.289 33.0793 174.499 33.0685 174.427C33.0501 174.307 33.0881 174.185 33.1746 174.089C33.2611 173.992 33.389 173.928 33.531 173.91C33.6721 173.895 33.8148 173.927 33.9277 174C34.0406 174.073 34.1145 174.181 34.1332 174.3C34.187 174.59 35.2624 181.398 33.1868 185.64C33.1428 185.718 33.0725 185.784 32.9846 185.829C32.8967 185.874 32.795 185.897 32.6922 185.894Z" fill="white"/>
<path d="M50.2532 224.699C49.1777 221.898 43.7039 216.005 33.8745 211.391C25.3357 207.385 12.1511 204.402 13.3126 199.118C14.474 193.833 26.6047 193.679 34.993 197.966C45.5213 203.306 51.4361 214.22 52.1351 218.525L50.2532 224.699Z" fill="#FF5680"/>
<path d="M51.2743 221.796C51.1498 221.798 51.0285 221.763 50.9321 221.696C50.8356 221.63 50.7702 221.537 50.7473 221.434C48.5965 211.68 32.1749 198.427 19.0763 198.717C18.9337 198.717 18.7969 198.669 18.6961 198.584C18.5952 198.499 18.5386 198.384 18.5386 198.264C18.5386 198.144 18.5952 198.028 18.6961 197.943C18.7969 197.858 18.9337 197.811 19.0763 197.811C32.6588 197.475 49.5751 211.19 51.8335 221.262C51.8588 221.38 51.828 221.503 51.7477 221.603C51.6673 221.703 51.5437 221.772 51.4033 221.796H51.2743Z" fill="white"/>
<path d="M380.189 46.649C380.191 47.3738 379.965 48.086 379.534 48.7132C379.104 49.3405 378.484 49.8606 377.737 50.2206L367.123 55.3603C366.513 55.6568 365.833 55.8386 365.132 55.8934C364.43 55.9481 363.723 55.8745 363.058 55.6776C362.93 56.2394 362.663 56.7721 362.273 57.2407C361.884 57.7094 361.382 58.1034 360.8 58.3971L360.412 58.5874L350.142 63.5912L349.852 63.7272C349.249 63.9732 348.593 64.1138 347.924 64.1402C347.255 64.1667 346.586 64.0786 345.959 63.8813C345.845 64.4838 345.573 65.0573 345.161 65.5593C344.75 66.0613 344.21 66.4792 343.582 66.7821L333.903 71.4958C335.694 74.014 336.697 76.8742 336.818 79.8083C336.818 82.7725 335.409 84.7305 333.237 85.4557C332.88 85.6922 332.485 85.8845 332.064 86.0268C331.709 86.2689 331.309 86.4617 330.881 86.5979C330.098 86.9835 329.313 87.3672 328.526 87.7491C328.165 87.9844 327.767 88.1765 327.343 88.3202C326.987 88.5572 326.593 88.7496 326.171 88.8913C325.81 89.1265 325.412 89.3187 324.988 89.4623C324.636 89.7037 324.24 89.8964 323.816 90.0334C321.977 91.2572 319.278 91.3025 316.224 89.8159C310.707 87.0964 306.222 80.5969 306.222 75.2033C306.222 72.4839 307.362 70.5984 309.18 69.8097C309.375 69.7324 309.576 69.6658 309.782 69.6103C309.963 69.4736 310.158 69.3493 310.363 69.2386C310.555 69.1628 310.753 69.0963 310.954 69.0392C311.133 68.8997 311.327 68.7753 311.535 68.6675C311.728 68.5863 311.93 68.5196 312.137 68.4681C312.318 68.3285 312.513 68.2012 312.718 68.0874C312.91 68.0146 313.108 67.951 313.309 67.897C313.491 67.7575 313.685 67.6301 313.89 67.5163C314.084 67.4381 314.285 67.3744 314.492 67.326C314.671 67.1837 314.865 67.0562 315.073 66.9452C315.265 66.8694 315.463 66.8028 315.664 66.7458C315.846 66.6091 316.04 66.4848 316.245 66.3741C316.44 66.2968 316.642 66.2302 316.847 66.1747C317.029 66.038 317.223 65.9137 317.428 65.8031C317.621 65.7273 317.818 65.6607 318.019 65.6036C318.202 65.5016 318.392 65.4108 318.589 65.3317C318.786 65.2559 318.987 65.1893 319.192 65.1323C319.37 64.9928 319.565 64.8683 319.772 64.7606C319.501 64.5461 319.213 64.3463 318.912 64.1623L318.03 63.6275L317.159 63.138C316.847 62.9658 316.535 62.8026 316.213 62.6485C315.183 62.1478 314.103 61.7232 312.987 61.3794C312.642 61.2706 312.298 61.1709 311.911 61.0893C310.665 60.761 309.367 60.5899 308.061 60.5817H307.448H306.996C306.767 60.5817 306.541 60.5817 306.319 60.5817C305.231 60.5919 304.16 60.358 303.215 59.904C302.27 59.45 301.486 58.7922 300.942 57.9982L300.684 57.6266C300.684 57.6266 303.05 50.7554 303.071 50.7282L310.599 46.921C312.086 46.034 313.73 45.3517 315.471 44.8995C315.765 44.8455 316.063 44.8092 316.363 44.7907H316.611C316.994 44.768 317.378 44.768 317.761 44.7907H318.17H318.278C319.033 44.8674 319.781 44.9916 320.514 45.1624C323.278 45.8458 325.922 46.8365 328.376 48.1084C328.956 48.3895 329.451 48.6795 330.043 49.0149C329.107 48.2988 328.15 47.628 327.171 46.9844C326.73 46.6853 326.289 46.3952 325.838 46.0779C325.777 46.025 325.708 45.9793 325.633 45.9419C325.246 45.6881 324.848 45.4434 324.44 45.1986C323.719 44.7635 322.988 44.2921 322.235 43.9114L321.246 43.3675C320.74 43.0865 320.17 42.8146 319.708 42.5517C319.245 42.2888 318.428 41.899 317.783 41.5817C311.793 38.6719 306.362 37.4391 301.447 37.4391H300.426L299.275 37.5026C298.985 37.5026 298.705 37.5026 298.415 37.5841L297.812 37.6567L297.275 37.7292L296.468 37.8561L295.532 38.0464C295.199 38.119 294.866 38.1915 294.532 38.2821C294.199 38.3728 293.973 38.4272 293.704 38.4997C293.033 38.6955 292.328 38.7966 291.618 38.7988C290.531 38.8072 289.46 38.5725 288.516 38.1186C287.571 37.6648 286.786 37.0081 286.241 36.2153L286.123 36.0431L287.962 29.4076C287.962 29.4076 287.962 29.4076 288.091 29.317C288.94 28.8093 293.134 26.3528 293.468 26.1896C295.442 25.2146 297.515 24.3895 299.662 23.724C300.544 23.4399 301.447 23.1861 302.372 22.9625L303.598 22.6815C304.007 22.5999 304.415 22.5093 304.835 22.4368C305.674 22.2827 306.513 22.1557 307.373 22.047L308.448 21.9201H308.696L309.986 21.8203C309.998 21.8161 310.011 21.8139 310.024 21.8139C310.037 21.8139 310.049 21.8161 310.061 21.8203L311.255 21.7569C311.366 21.7478 311.478 21.7478 311.588 21.7569C313.045 21.7211 314.503 21.7574 315.955 21.8657C317.846 22.0212 319.719 22.3031 321.558 22.7087C315.057 19.6364 307.844 17.7871 300.415 17.2879C297.743 17.1435 295.06 17.2102 292.403 17.4873C291.736 17.5508 291.059 17.6324 290.403 17.7321H290.198C289.79 17.7865 289.403 17.8499 289.005 17.9315C288.327 18.0494 287.66 18.1763 286.994 18.3213C286.327 18.4663 285.682 18.6295 285.036 18.8017C284.563 18.9166 284.101 19.0435 283.649 19.1825C283.058 19.3547 282.466 19.5451 281.896 19.7354C281.077 20.0166 280.2 20.1613 279.315 20.1615C278.053 20.1552 276.814 19.8697 275.723 19.3337C274.633 18.7976 273.728 18.0297 273.099 17.1066L272.949 16.8891C273.035 16.5446 275.003 9.23832 275.003 9.23832H275.057L275.196 9.14766L275.293 9.08421C276.283 8.4678 279.487 6.48259 279.821 6.36475C282.156 5.21732 284.603 4.23788 287.133 3.4368C288.567 2.98356 290.001 2.5847 291.435 2.24024L292.995 1.90484L294.618 1.59664C296.286 1.31655 297.969 1.10779 299.662 0.971158C300.232 0.916768 300.802 0.88051 301.383 0.84425C301.963 0.807991 302.544 0.789859 303.125 0.77173C303.706 0.7536 304.297 0.77173 304.889 0.77173C314.395 0.77173 324.827 2.95637 335.613 8.20492C339.818 10.2536 343.604 12.2388 347.088 14.2603C347.518 14.505 347.938 14.7498 348.346 15.0036C349.422 15.6562 350.497 16.327 351.573 16.9978L352.981 17.9043C354.057 18.5933 355.035 19.2912 356.025 20.0164C356.423 20.2974 356.799 20.5785 357.186 20.8685L357.767 21.3036L358.993 22.2555C361.444 24.1918 363.767 26.2405 365.951 28.3924L366.79 29.2354C367.22 29.6614 367.639 30.1419 368.059 30.5407C368.715 31.2206 369.371 31.9277 370.016 32.6529L371.145 33.9219C371.941 34.8284 372.737 35.7349 373.533 36.7683C373.92 37.2487 374.318 37.7292 374.705 38.2277C375.092 38.7263 375.49 39.2249 375.888 39.7416C376.286 40.2583 376.684 40.775 377.071 41.3007C377.866 42.3613 378.673 43.4491 379.48 44.5822C379.931 45.2054 380.176 45.919 380.189 46.649Z" fill="#FF5680"/>
<g opacity="0.2">
<path opacity="0.2" d="M380.189 46.649C380.191 47.3738 379.965 48.086 379.534 48.7132C379.104 49.3405 378.484 49.8606 377.737 50.2206L367.123 55.3603C366.513 55.6568 365.833 55.8386 365.132 55.8934C364.43 55.9481 363.723 55.8745 363.058 55.6776C362.93 56.2394 362.663 56.7721 362.273 57.2407C361.884 57.7094 361.382 58.1034 360.8 58.3971L360.412 58.5874L350.142 63.5912L349.852 63.7272C349.249 63.9732 348.593 64.1138 347.924 64.1402C347.255 64.1667 346.586 64.0786 345.959 63.8813C345.845 64.4838 345.573 65.0573 345.161 65.5593C344.75 66.0613 344.21 66.4792 343.582 66.7821L333.903 71.4958C335.694 74.014 336.697 76.8742 336.818 79.8083C336.818 82.7725 335.409 84.7305 333.237 85.4557C332.88 85.6922 332.485 85.8845 332.064 86.0268C331.709 86.2689 331.309 86.4617 330.881 86.5979C330.098 86.9835 329.313 87.3672 328.526 87.7491C328.165 87.9844 327.767 88.1765 327.343 88.3202C326.987 88.5572 326.593 88.7496 326.171 88.8913C325.81 89.1265 325.412 89.3187 324.988 89.4623C324.636 89.7037 324.24 89.8964 323.816 90.0334C321.977 91.2572 319.278 91.3025 316.224 89.8159C310.707 87.0964 306.222 80.5969 306.222 75.2033C306.222 72.4839 307.362 70.5984 309.18 69.8097C309.375 69.7324 309.576 69.6658 309.782 69.6103C309.963 69.4736 310.158 69.3493 310.363 69.2386C310.555 69.1628 310.753 69.0963 310.954 69.0392C311.133 68.8997 311.327 68.7753 311.535 68.6675C311.728 68.5863 311.93 68.5196 312.137 68.4681C312.318 68.3285 312.513 68.2012 312.718 68.0874C312.91 68.0146 313.108 67.951 313.309 67.897C313.491 67.7575 313.685 67.6301 313.89 67.5163C314.084 67.4381 314.285 67.3744 314.492 67.326C314.671 67.1837 314.865 67.0562 315.073 66.9452C315.265 66.8694 315.463 66.8028 315.664 66.7458C315.846 66.6091 316.04 66.4848 316.245 66.3741C316.44 66.2968 316.642 66.2302 316.847 66.1747C317.029 66.038 317.223 65.9137 317.428 65.8031C317.621 65.7273 317.818 65.6607 318.019 65.6036C318.202 65.5016 318.392 65.4108 318.589 65.3317C318.786 65.2559 318.987 65.1893 319.192 65.1323C319.37 64.9928 319.565 64.8683 319.772 64.7606C319.501 64.5461 319.213 64.3463 318.912 64.1623L318.03 63.6275L317.159 63.138C316.847 62.9658 316.535 62.8026 316.213 62.6485C315.183 62.1478 314.103 61.7232 312.987 61.3794C312.642 61.2706 312.298 61.1709 311.911 61.0893C310.665 60.761 309.367 60.5899 308.061 60.5817H307.448H306.996C306.767 60.5817 306.541 60.5817 306.319 60.5817C305.231 60.5919 304.16 60.358 303.215 59.904C302.27 59.45 301.486 58.7922 300.942 57.9982L300.684 57.6266C300.684 57.6266 303.05 50.7554 303.071 50.7282L310.599 46.921C312.086 46.034 313.73 45.3517 315.471 44.8995C315.765 44.8455 316.063 44.8092 316.363 44.7907H316.611C316.994 44.768 317.378 44.768 317.761 44.7907H318.17H318.278C319.033 44.8674 319.781 44.9916 320.514 45.1624C323.278 45.8458 325.922 46.8365 328.376 48.1084C328.956 48.3895 329.451 48.6795 330.043 49.0149C329.107 48.2988 328.15 47.628 327.171 46.9844C326.73 46.6853 326.289 46.3952 325.838 46.0779C325.777 46.025 325.708 45.9793 325.633 45.9419C325.246 45.6881 324.848 45.4434 324.44 45.1986C323.719 44.7635 322.988 44.2921 322.235 43.9114L321.246 43.3675C320.74 43.0865 320.17 42.8146 319.708 42.5517C319.245 42.2888 318.428 41.899 317.783 41.5817C311.793 38.6719 306.362 37.4391 301.447 37.4391H300.426L299.275 37.5026C298.985 37.5026 298.705 37.5026 298.415 37.5841L297.812 37.6567L297.275 37.7292L296.468 37.8561L295.532 38.0464C295.199 38.119 294.866 38.1915 294.532 38.2821C294.199 38.3728 293.973 38.4272 293.704 38.4997C293.033 38.6955 292.328 38.7966 291.618 38.7988C290.531 38.8072 289.46 38.5725 288.516 38.1186C287.571 37.6648 286.786 37.0081 286.241 36.2153L286.123 36.0431L287.962 29.4076C287.962 29.4076 287.962 29.4076 288.091 29.317C288.94 28.8093 293.134 26.3528 293.468 26.1896C295.442 25.2146 297.515 24.3895 299.662 23.724C300.544 23.4399 301.447 23.1861 302.372 22.9625L303.598 22.6815C304.007 22.5999 304.415 22.5093 304.835 22.4368C305.674 22.2827 306.513 22.1557 307.373 22.047L308.448 21.9201H308.696L309.986 21.8203C309.998 21.8161 310.011 21.8139 310.024 21.8139C310.037 21.8139 310.049 21.8161 310.061 21.8203L311.255 21.7569C311.366 21.7478 311.478 21.7478 311.588 21.7569C313.045 21.7211 314.503 21.7574 315.955 21.8657C317.846 22.0212 319.719 22.3031 321.558 22.7087C315.057 19.6364 307.844 17.7871 300.415 17.2879C297.743 17.1435 295.06 17.2102 292.403 17.4873C291.736 17.5508 291.059 17.6324 290.403 17.7321H290.198C289.79 17.7865 289.403 17.8499 289.005 17.9315C288.327 18.0494 287.66 18.1763 286.994 18.3213C286.327 18.4663 285.682 18.6295 285.036 18.8017C284.563 18.9166 284.101 19.0435 283.649 19.1825C283.058 19.3547 282.466 19.5451 281.896 19.7354C281.077 20.0166 280.2 20.1613 279.315 20.1615C278.053 20.1552 276.814 19.8697 275.723 19.3337C274.633 18.7976 273.728 18.0297 273.099 17.1066L272.949 16.8891C273.035 16.5446 275.003 9.23832 275.003 9.23832H275.057L275.196 9.14766L275.293 9.08421C276.283 8.4678 279.487 6.48259 279.821 6.36475C282.156 5.21732 284.603 4.23788 287.133 3.4368C288.567 2.98356 290.001 2.5847 291.435 2.24024L292.995 1.90484L294.618 1.59664C296.286 1.31655 297.969 1.10779 299.662 0.971158C300.232 0.916768 300.802 0.88051 301.383 0.84425C301.963 0.807991 302.544 0.789859 303.125 0.77173C303.706 0.7536 304.297 0.77173 304.889 0.77173C314.395 0.77173 324.827 2.95637 335.613 8.20492C339.818 10.2536 343.604 12.2388 347.088 14.2603C347.518 14.505 347.938 14.7498 348.346 15.0036C349.422 15.6562 350.497 16.327 351.573 16.9978L352.981 17.9043C354.057 18.5933 355.035 19.2912 356.025 20.0164C356.423 20.2974 356.799 20.5785 357.186 20.8685L357.767 21.3036L358.993 22.2555C361.444 24.1918 363.767 26.2405 365.951 28.3924L366.79 29.2354C367.22 29.6614 367.639 30.1419 368.059 30.5407C368.715 31.2206 369.371 31.9277 370.016 32.6529L371.145 33.9219C371.941 34.8284 372.737 35.7349 373.533 36.7683C373.92 37.2487 374.318 37.7292 374.705 38.2277C375.092 38.7263 375.49 39.2249 375.888 39.7416C376.286 40.2583 376.684 40.775 377.071 41.3007C377.866 42.3613 378.673 43.4491 379.48 44.5822C379.931 45.2054 380.176 45.919 380.189 46.649Z" fill="black"/>
</g>
<path d="M326.205 85.0266C326.205 90.3749 321.731 92.5777 316.214 89.8763C310.697 87.175 306.213 80.6664 306.213 75.2729C306.213 72.5534 307.353 70.6679 309.17 69.8793C310.988 69.0906 313.472 69.0906 316.214 70.4141C319.13 72.0119 321.555 74.169 323.292 76.7089C325.028 79.2487 326.027 82.0991 326.205 85.0266Z" fill="#FF5680"/>
<path d="M334.549 65.9824C330.212 60.6909 324.471 56.324 317.783 53.2281C314.677 51.657 311.26 50.57 307.696 50.0191C306.67 49.8668 305.615 49.9283 304.623 50.1985C303.631 50.4687 302.733 50.9393 302.007 51.5692L301.942 51.6327C301.048 52.4152 300.46 53.4097 300.256 54.4825C300.052 55.5552 300.243 56.6549 300.803 57.6336C300.876 57.7732 300.959 57.9093 301.05 58.0415C301.594 58.8356 302.378 59.4933 303.323 59.9473C304.268 60.4013 305.339 60.6352 306.427 60.625C306.649 60.625 306.875 60.625 307.105 60.625H307.556H308.169C309.475 60.6332 310.773 60.8043 312.019 61.1326C312.363 61.2142 312.707 61.3139 313.095 61.4227C314.211 61.7665 315.291 62.1911 316.321 62.6918C316.643 62.8459 316.955 63.0091 317.267 63.1813C317.579 63.3535 317.859 63.4986 318.138 63.6708C318.418 63.843 318.73 64.0153 319.02 64.2056C319.31 64.396 319.612 64.5864 319.902 64.7858C322.453 66.5519 324.717 68.594 326.634 70.8593C327.414 71.7027 328.55 72.2601 329.805 72.4152C331.06 72.5703 332.338 72.3113 333.372 71.6919C334.406 71.0726 335.117 70.1408 335.356 69.0907C335.596 68.0406 335.345 66.9531 334.657 66.0549L334.549 65.9824Z" fill="#FF5680"/>
<path d="M351.82 57.863C342.915 45.7342 333.796 37.8387 320.267 31.1035C315.66 28.7863 310.495 27.3722 305.152 26.9658C299.809 26.5594 294.427 27.1711 289.402 28.7557C288.943 28.894 288.506 29.0798 288.101 29.3087L287.972 29.3993C286.765 30.1303 285.913 31.2057 285.575 32.426C285.236 33.6463 285.435 34.9285 286.133 36.0348L286.252 36.207C286.797 36.9998 287.582 37.6565 288.526 38.1103C289.471 38.5641 290.541 38.7988 291.629 38.7905C292.339 38.7883 293.044 38.6872 293.715 38.4914C293.984 38.4189 294.263 38.3373 294.543 38.2738C294.823 38.2104 295.21 38.1107 295.543 38.0381L296.479 37.8478L297.285 37.7209L297.823 37.6483L298.425 37.5758C298.716 37.5758 298.995 37.5124 299.286 37.4942L300.436 37.4308H301.458C306.373 37.4308 311.803 38.6636 317.794 41.5734L319.718 42.5434C320.235 42.8063 320.794 43.0782 321.256 43.3592L322.246 43.9031C322.999 44.3201 323.73 44.7552 324.45 45.1903C324.859 45.4351 325.257 45.6798 325.644 45.9336C325.719 45.971 325.788 46.0167 325.848 46.0696C326.3 46.3415 326.741 46.6316 327.182 46.9761C328.161 47.6197 329.118 48.2905 330.053 49.0066C330.053 49.0066 330.053 49.0066 330.107 49.0066C335.308 52.9076 339.834 57.4055 343.55 62.3682C344.118 63.1109 344.961 63.6749 345.948 63.9727C346.576 64.17 347.244 64.2581 347.913 64.2316C348.582 64.2051 349.238 64.0646 349.841 63.8186L350.131 63.6826C350.703 63.402 351.201 63.0274 351.597 62.5812C351.994 62.135 352.28 61.6262 352.438 61.0851C352.596 60.544 352.624 59.9815 352.52 59.4311C352.416 58.8807 352.181 58.3536 351.83 57.8811L351.82 57.863Z" fill="#FF5680"/>
<path d="M368.887 49.6888C355.982 31.559 345.228 23.1559 325.01 13.2933C307.061 4.60013 290.091 4.32819 276.756 8.47989C276.233 8.64732 275.732 8.85997 275.261 9.11444L275.165 9.17789L275.025 9.26854H274.971C273.612 10.1317 272.659 11.3731 272.283 12.7722C271.907 14.1713 272.132 15.6375 272.917 16.9102C272.917 16.9918 273.014 17.0553 273.068 17.1368C273.696 18.0599 274.601 18.8278 275.692 19.3639C276.782 19.9 278.021 20.1854 279.283 20.1917C280.168 20.1915 281.045 20.0468 281.864 19.7656C282.434 19.5753 283.026 19.3849 283.617 19.2127C284.209 19.0405 284.531 18.9498 285.005 18.832C285.65 18.6597 286.295 18.4966 286.962 18.3515C287.629 18.2065 288.295 18.0796 288.973 17.9617C289.371 17.8802 289.758 17.8167 290.167 17.7623H290.371C291.027 17.6626 291.705 17.581 292.371 17.5176C295.038 17.2253 297.732 17.1494 300.415 17.2909C307.886 17.7701 315.14 19.6269 321.666 22.7299L323.268 23.4913C340.26 31.7585 349.627 38.9016 360.477 53.9855C361.177 54.8737 362.256 55.4999 363.489 55.7334C364.723 55.967 366.016 55.7898 367.099 55.2388C368.181 54.6878 368.969 53.8057 369.299 52.7766C369.628 51.7475 369.473 50.651 368.866 49.716L368.887 49.6888Z" fill="#FF5680"/>
<path d="M302.987 212.795L336.067 196.696L321.183 156.855L302.987 212.795Z" fill="#37474F"/>
<path d="M301.653 220.69C302.223 220.374 302.654 219.909 302.879 219.366L324.904 155.006L321.183 156.819L298.857 222.013L301.653 220.69Z" fill="#263238"/>
<path d="M296.073 220.693L298.858 222.053L321.184 156.885L317.517 155.072L295.492 219.433C295.428 219.668 295.45 219.913 295.553 220.138C295.657 220.362 295.838 220.556 296.073 220.693Z" fill="#37474F"/>
<path d="M395.388 217.539C395.439 217.796 395.399 218.061 395.272 218.299C395.146 218.538 394.94 218.74 394.678 218.88L391.893 220.24L369.567 133.317L373.288 131.504L392.302 205.555L395.388 217.539Z" fill="#37474F"/>
<path d="M389.097 218.88C388.527 218.571 388.117 218.092 387.946 217.539L365.847 131.504L369.568 133.317L391.893 220.24L389.097 218.88Z" fill="#263238"/>
<path d="M321.183 156.885L343.508 243.808L340.723 242.448C340.154 242.14 339.741 241.666 339.562 241.116L317.516 155.072L321.183 156.885Z" fill="#263238"/>
<path d="M346.305 242.421C346.567 242.284 346.773 242.083 346.898 241.846C347.023 241.608 347.06 241.344 347.004 241.089L324.905 155.072L321.184 156.885L343.509 243.808L346.305 242.421Z" fill="#37474F"/>
<path d="M369.565 129.689L373.286 131.502L321.182 156.857L317.461 155.044L369.565 129.689Z" fill="#37474F"/>
<path d="M373.288 131.504L321.184 156.858L340.208 230.909L392.301 205.555L373.288 131.504Z" fill="#455A64"/>
<path d="M341.778 178.993C341.23 178.993 340.918 178.993 340.853 178.993C340.763 178.985 340.675 178.961 340.596 178.924C340.516 178.887 340.447 178.836 340.391 178.776C340.281 178.654 340.23 178.502 340.251 178.35C340.466 176.691 342.015 172.403 351.565 168.324C359.34 164.997 365.201 165.931 366.352 166.366C366.513 166.428 366.64 166.539 366.706 166.678C366.772 166.816 366.772 166.971 366.706 167.109C366.631 167.272 364.695 171.143 356.081 175.331C349.263 178.64 343.854 178.993 341.778 178.993ZM362.437 167.046C358.852 167.113 355.337 167.893 352.178 169.321C344.241 172.72 342.251 176.21 341.757 177.833C346.586 177.655 351.28 176.438 355.393 174.298C361.652 171.261 364.19 168.433 365.072 167.245C364.204 167.104 363.321 167.037 362.437 167.046Z" fill="white"/>
<path d="M353.006 192.508C351.734 192.515 350.476 192.29 349.317 191.846C344.016 189.816 341.682 183.688 340.252 178.521C340.22 178.444 340.209 178.363 340.217 178.282C340.225 178.201 340.254 178.123 340.3 178.052C340.347 177.981 340.411 177.919 340.487 177.87C340.564 177.821 340.652 177.786 340.746 177.768C340.84 177.749 340.937 177.747 341.031 177.763C341.126 177.778 341.216 177.809 341.295 177.856C341.374 177.902 341.441 177.962 341.491 178.031C341.541 178.1 341.573 178.178 341.585 178.258C342.951 183.135 345.123 188.973 349.887 190.795C352.447 191.774 355.555 191.447 359.136 189.843C369.449 185.229 368.234 174.895 365.406 167.036C365.37 166.961 365.353 166.881 365.356 166.8C365.359 166.72 365.382 166.641 365.423 166.568C365.464 166.495 365.523 166.431 365.595 166.378C365.668 166.326 365.753 166.287 365.844 166.263C365.936 166.24 366.032 166.233 366.127 166.242C366.222 166.252 366.313 166.278 366.395 166.32C366.477 166.361 366.548 166.416 366.604 166.481C366.66 166.547 366.698 166.621 366.718 166.7C371.019 178.566 368.6 186.924 359.781 190.867C357.715 191.871 355.389 192.435 353.006 192.508Z" fill="white"/>
<path d="M367.984 179.882C367.848 179.881 367.715 179.846 367.602 179.782C367.489 179.717 367.401 179.626 367.35 179.519C367.315 179.449 367.297 179.374 367.297 179.297C367.297 179.221 367.315 179.146 367.35 179.076C367.385 179.006 367.437 178.942 367.501 178.889C367.566 178.836 367.642 178.794 367.726 178.767C370.899 177.67 372.222 174.914 372.394 172.702C372.533 170.935 371.942 169.684 371.318 169.366C371.144 169.274 370.948 169.215 370.744 169.191C370.54 169.168 370.333 169.181 370.135 169.23C369.167 169.603 368.378 170.243 367.898 171.043C367.814 171.18 367.669 171.284 367.495 171.33C367.32 171.377 367.131 171.364 366.968 171.293C366.806 171.222 366.683 171.099 366.628 170.952C366.572 170.805 366.588 170.646 366.672 170.508C367.336 169.425 368.422 168.567 369.748 168.079C370.124 167.985 370.519 167.958 370.908 168C371.297 168.042 371.671 168.152 372.007 168.324C373.254 168.931 373.953 170.672 373.781 172.748C373.577 175.304 372.028 178.504 368.264 179.8C368.178 179.843 368.083 179.87 367.984 179.882Z" fill="white"/>
<path d="M344.683 168.478L344.489 168.406C344.3 168.349 344.119 168.273 343.952 168.179L343.586 167.953L343.22 167.644C342.941 167.371 342.709 167.066 342.532 166.738C342.33 166.347 342.189 165.936 342.113 165.514C342.017 165.056 341.98 164.591 342.005 164.127C342.053 163.124 342.27 162.132 342.65 161.181C342.844 160.692 343.08 160.275 343.285 159.803C343.473 159.399 343.628 158.984 343.747 158.561C343.969 157.827 343.969 157.057 343.747 156.322C343.559 155.789 343.228 155.299 342.779 154.89C342.648 154.768 342.508 154.653 342.36 154.546L342.209 154.428C342.466 154.503 342.714 154.597 342.951 154.709C343.608 155.025 344.14 155.498 344.478 156.068C344.946 156.898 345.103 157.827 344.93 158.734C344.854 159.234 344.714 159.727 344.511 160.202C344.317 160.664 344.102 161.109 343.941 161.544C343.779 161.979 343.607 162.45 343.478 162.885C343.355 163.318 343.262 163.757 343.199 164.2C343.139 164.609 343.11 165.02 343.113 165.432C343.127 165.798 343.178 166.162 343.263 166.52C343.353 166.832 343.479 167.136 343.64 167.427C343.772 167.642 343.931 167.846 344.113 168.034C344.232 168.165 344.37 168.283 344.521 168.388L344.683 168.478Z" fill="white"/>
<path d="M347.941 165.171L347.79 165.026C347.646 164.899 347.51 164.766 347.382 164.627C347.192 164.393 347.023 164.148 346.876 163.893C346.689 163.554 346.562 163.193 346.5 162.823C346.407 162.387 346.386 161.941 346.435 161.5C346.479 161.017 346.568 160.538 346.704 160.067C346.962 159.097 347.36 158.128 347.651 157.167C347.801 156.686 347.963 156.188 348.049 155.734C348.148 155.289 348.191 154.837 348.178 154.384C348.147 153.97 348.064 153.559 347.93 153.16C347.666 152.476 347.213 151.854 346.607 151.347C346.386 151.158 346.153 150.979 345.908 150.812C345.692 150.665 345.466 150.529 345.231 150.404C345.51 150.453 345.784 150.523 346.048 150.613C346.767 150.862 347.419 151.232 347.963 151.701C348.751 152.408 349.248 153.311 349.382 154.275C349.416 154.543 349.434 154.812 349.436 155.082C349.435 155.352 349.409 155.622 349.361 155.889C349.266 156.414 349.137 156.934 348.973 157.448C348.629 158.463 348.21 159.433 347.898 160.321C347.737 160.765 347.575 161.228 347.479 161.599C347.377 161.978 347.319 162.363 347.307 162.751C347.29 162.923 347.29 163.095 347.307 163.267C347.309 163.426 347.334 163.585 347.382 163.739C347.438 163.994 347.517 164.246 347.618 164.491C347.812 164.926 347.941 165.171 347.941 165.171Z" fill="white"/>
<path d="M353.499 165.044L353.306 164.971C353.108 164.915 352.923 164.832 352.757 164.726C352.475 164.575 352.221 164.388 352.004 164.173L351.639 163.756C351.531 163.593 351.434 163.421 351.327 163.231C351.132 162.829 350.995 162.409 350.918 161.98C350.828 161.494 350.806 161.001 350.854 160.511C350.918 159.487 351.157 158.477 351.563 157.511C351.768 157.012 352.015 156.55 352.219 156.106C352.424 155.661 352.607 155.199 352.746 154.809C353.016 154.055 353.101 153.262 352.994 152.48C352.932 152.166 352.82 151.861 352.66 151.573C352.534 151.343 352.375 151.127 352.187 150.93C352.066 150.794 351.933 150.667 351.789 150.549L351.649 150.422C351.902 150.518 352.143 150.633 352.37 150.766C352.645 150.922 352.892 151.112 353.101 151.328C353.385 151.613 353.608 151.939 353.757 152.289C354.096 153.168 354.152 154.106 353.919 155.009C353.815 155.509 353.66 156 353.456 156.477C353.252 156.958 353.026 157.384 352.854 157.864C352.662 158.312 352.5 158.769 352.37 159.233C352.234 159.675 352.126 160.123 352.047 160.575C351.985 160.996 351.952 161.419 351.951 161.844C351.952 162.221 351.996 162.597 352.08 162.968C352.171 163.279 352.297 163.582 352.456 163.874C352.588 164.098 352.751 164.308 352.94 164.5C353.063 164.631 353.2 164.752 353.349 164.862L353.499 165.044Z" fill="white"/>
<path d="M357.437 206.073C357.587 206 357.749 206.073 357.749 206.236C357.611 207.098 357.241 207.922 356.667 208.645C356.093 209.368 355.33 209.97 354.436 210.406C351.984 211.603 350.21 211.131 350.21 208.385C350.207 207.218 350.572 206.072 351.268 205.064C351.963 204.056 352.964 203.222 354.168 202.646C355.813 201.849 356.609 202.338 356.609 203.063C356.597 203.228 356.541 203.388 356.444 203.531C356.347 203.674 356.212 203.796 356.049 203.888C355.716 204.052 355.63 203.97 355.63 203.97C355.68 203.838 355.705 203.7 355.705 203.562C355.705 202.864 355.168 202.656 354.103 203.163C353.227 203.702 352.516 204.409 352.028 205.226C351.539 206.042 351.289 206.945 351.296 207.859C351.296 210.188 352.769 210.714 354.436 209.907C355.218 209.544 355.88 209.022 356.362 208.389C356.845 207.756 357.133 207.032 357.2 206.281C357.256 206.196 357.338 206.124 357.437 206.073Z" fill="white"/>
<path d="M359.663 207.349C358.373 207.983 357.254 207.738 357.254 206.243C357.259 205.552 357.479 204.874 357.893 204.278C358.306 203.681 358.898 203.186 359.61 202.843C360.922 202.2 361.965 202.463 361.965 203.949C361.947 204.633 361.727 205.301 361.325 205.895C360.924 206.489 360.352 206.988 359.663 207.349ZM359.663 206.959C359.96 206.816 360.213 206.616 360.4 206.375C360.587 206.134 360.703 205.858 360.739 205.572C360.345 205.737 359.897 205.783 359.468 205.702C359.039 205.621 358.656 205.418 358.384 205.128C358.384 205.3 358.384 205.49 358.384 205.69C358.384 207.049 358.76 207.403 359.663 206.959ZM358.814 204.131C358.814 205.037 359.749 205.427 360.814 205.155C360.814 204.955 360.814 204.738 360.814 204.493C360.814 203.152 360.556 202.753 359.577 203.233C359.375 203.322 359.201 203.449 359.069 203.605C358.936 203.761 358.849 203.941 358.814 204.131Z" fill="white"/>
<path d="M363.846 201.301V208.97C363.737 209.123 363.581 209.248 363.395 209.332C363.072 209.486 362.782 209.45 362.782 209.015V200.267C362.782 198.645 363.115 197.639 364.234 197.095C365.019 196.714 365.406 196.95 365.406 197.856C365.377 198.92 364.947 199.948 364.18 200.793L365.255 200.276C365.599 200.113 365.664 200.195 365.664 200.431L363.846 201.301ZM364.922 198.119C364.922 197.439 364.685 197.276 364.352 197.439C364.018 197.602 363.9 197.983 363.868 200.739C364.559 199.978 364.923 199.041 364.9 198.083L364.922 198.119Z" fill="white"/>
<path d="M367.156 199.652V207.32C367.048 207.473 366.891 207.599 366.705 207.683C366.382 207.837 366.092 207.801 366.092 207.375V198.582C366.092 196.959 366.425 195.953 367.544 195.409C368.329 195.028 368.716 195.264 368.716 196.171C368.687 197.234 368.257 198.263 367.49 199.108L368.565 198.591C368.909 198.428 368.974 198.509 368.974 198.745L367.156 199.652ZM368.232 196.47C368.232 195.79 367.995 195.627 367.662 195.79C367.329 195.953 367.21 196.334 367.178 199.099C367.859 198.343 368.222 197.418 368.21 196.47H368.232Z" fill="white"/>
<path d="M374.374 197.919C374.524 197.837 374.621 197.919 374.621 198.118C374.557 198.761 374.306 199.381 373.892 199.923C373.478 200.465 372.912 200.913 372.244 201.228C370.502 202.071 369.416 201.844 369.416 200.421C369.414 199.716 369.63 199.022 370.043 198.408C370.456 197.795 371.052 197.283 371.771 196.922C372.847 196.396 373.201 196.831 373.201 197.348C373.08 197.991 372.779 198.6 372.322 199.125C371.866 199.649 371.268 200.075 370.577 200.367C370.728 201.164 371.363 201.273 372.244 200.838C372.821 200.552 373.302 200.148 373.643 199.663C373.983 199.178 374.172 198.628 374.191 198.064C374.191 198.064 374.202 198.001 374.374 197.919ZM370.534 200.013C371.007 199.782 371.415 199.467 371.729 199.09C372.043 198.712 372.255 198.282 372.352 197.828C372.352 197.303 372.062 197.167 371.578 197.402C370.846 197.756 370.502 198.445 370.502 199.922L370.534 200.013Z" fill="white"/>
<path d="M379.181 195.573C379.343 195.501 379.429 195.573 379.429 195.773C379.369 196.416 379.121 197.037 378.706 197.58C378.291 198.123 377.723 198.57 377.052 198.882C375.321 199.734 374.234 199.507 374.234 198.075C374.233 197.371 374.448 196.678 374.859 196.065C375.27 195.451 375.862 194.938 376.579 194.576C377.654 194.05 378.02 194.485 378.02 195.011C377.896 195.653 377.592 196.261 377.134 196.784C376.676 197.307 376.076 197.731 375.385 198.021C375.546 198.827 376.181 198.927 377.052 198.492C377.63 198.207 378.113 197.803 378.455 197.318C378.797 196.833 378.988 196.282 379.009 195.718C379.009 195.718 379.02 195.655 379.181 195.573ZM375.353 197.676C375.826 197.447 376.234 197.132 376.546 196.754C376.858 196.376 377.068 195.945 377.16 195.492C377.16 194.975 376.88 194.83 376.396 195.065C375.665 195.428 375.321 196.117 375.321 197.585L375.353 197.676Z" fill="white"/>
<path d="M283.932 139.11V185.585C283.945 185.789 284.015 185.987 284.136 186.164C284.258 186.34 284.428 186.49 284.631 186.6L286.502 187.507C286.719 187.601 286.958 187.65 287.201 187.65C287.445 187.65 287.684 187.601 287.9 187.507L289.782 186.6C289.986 186.487 290.155 186.336 290.276 186.158C290.398 185.98 290.468 185.781 290.481 185.576V139.11C290.479 138.93 290.393 138.758 290.242 138.631C290.091 138.504 289.888 138.432 289.675 138.43H284.739C284.525 138.43 284.32 138.501 284.168 138.629C284.017 138.756 283.932 138.929 283.932 139.11Z" fill="#263238"/>
<path d="M289.676 138.43H288.009C287.796 138.432 287.592 138.504 287.441 138.631C287.291 138.758 287.205 138.93 287.202 139.11V187.153C287.202 187.525 287.514 187.679 287.901 187.489L289.783 186.582C289.986 186.469 290.156 186.318 290.277 186.14C290.398 185.962 290.469 185.763 290.482 185.558V139.11C290.479 138.93 290.394 138.758 290.243 138.631C290.092 138.504 289.889 138.432 289.676 138.43Z" fill="#455A64"/>
<path d="M252.293 154.444V200.919C252.306 201.123 252.376 201.321 252.497 201.498C252.619 201.674 252.788 201.824 252.992 201.934L254.863 202.841C255.079 202.935 255.319 202.984 255.562 202.984C255.805 202.984 256.045 202.935 256.261 202.841L258.143 201.934C258.347 201.824 258.516 201.674 258.638 201.498C258.76 201.321 258.83 201.123 258.842 200.919V154.444C258.842 154.263 258.757 154.09 258.606 153.963C258.455 153.835 258.25 153.764 258.036 153.764H253.1C252.886 153.764 252.68 153.835 252.529 153.963C252.378 154.09 252.293 154.263 252.293 154.444Z" fill="#263238"/>
<path d="M258.037 153.764H256.371C256.157 153.766 255.954 153.838 255.803 153.965C255.653 154.092 255.567 154.264 255.564 154.444V202.487C255.564 202.859 255.887 203.013 256.263 202.823L258.145 201.916C258.349 201.806 258.518 201.656 258.64 201.48C258.761 201.303 258.831 201.105 258.844 200.901V154.444C258.844 154.263 258.759 154.09 258.608 153.963C258.456 153.835 258.251 153.764 258.037 153.764Z" fill="#455A64"/>
<path d="M254.393 120.333C254.441 120.658 254.413 120.988 254.309 121.304C254.206 121.619 254.03 121.915 253.792 122.173C253.553 122.432 253.256 122.648 252.918 122.81C252.58 122.971 252.208 123.075 251.822 123.116H251.457C250.736 123.116 250.039 122.894 249.498 122.492C248.958 122.089 248.61 121.534 248.521 120.931C246.822 109.455 249.241 83.7653 255.07 69.334C255.208 68.981 255.438 68.6586 255.743 68.3905C256.049 68.1225 256.422 67.9156 256.834 67.7851C257.247 67.6546 257.689 67.6039 258.129 67.6366C258.568 67.6693 258.993 67.7847 259.372 67.9743C259.965 68.2629 260.419 68.7172 260.657 69.2585C260.895 69.7997 260.9 70.394 260.673 70.9385C255.049 84.5448 252.758 109.283 254.393 120.333Z" fill="#455A64"/>
<path d="M288.686 126.975C288.291 126.974 287.906 126.869 287.585 126.674C287.265 126.479 287.025 126.203 286.901 125.887C283.105 116.097 263.35 106.905 250.842 106.905C250.343 106.905 249.865 106.738 249.512 106.44C249.159 106.143 248.96 105.739 248.96 105.319C248.96 104.898 249.159 104.495 249.512 104.197C249.865 103.9 250.343 103.732 250.842 103.732C264.683 103.732 286.116 113.704 290.482 124.844C290.56 125.043 290.59 125.252 290.571 125.46C290.552 125.668 290.485 125.871 290.373 126.057C290.261 126.243 290.107 126.408 289.919 126.544C289.731 126.68 289.513 126.783 289.278 126.848C289.091 126.918 288.891 126.961 288.686 126.975Z" fill="#37474F"/>
<path d="M290.709 112.475C290.312 112.475 289.925 112.369 289.604 112.172C289.283 111.975 289.045 111.697 288.924 111.378C284.945 101.207 264.706 92.6682 252.489 93.7287C252 93.7595 251.517 93.6285 251.141 93.3636C250.766 93.0986 250.527 92.7207 250.477 92.31C250.426 91.8993 250.568 91.4883 250.871 91.1641C251.175 90.84 251.616 90.6284 252.102 90.5742C265.91 89.3867 287.956 98.7779 292.494 110.39C292.572 110.588 292.602 110.797 292.583 111.005C292.564 111.213 292.497 111.416 292.385 111.602C292.273 111.788 292.119 111.954 291.931 112.09C291.743 112.225 291.525 112.329 291.29 112.393C291.103 112.447 290.907 112.474 290.709 112.475Z" fill="#37474F"/>
<path d="M295.258 101.259C294.897 101.263 294.542 101.179 294.235 101.019C293.928 100.858 293.682 100.627 293.526 100.352C287.73 89.2298 266.48 79.7208 255.456 81.008C255.205 81.0511 254.945 81.0503 254.693 81.0056C254.442 80.9609 254.204 80.8732 253.994 80.748C253.784 80.6227 253.607 80.4626 253.474 80.2774C253.34 80.0923 253.253 79.886 253.218 79.6714C253.182 79.4568 253.199 79.2383 253.268 79.0295C253.337 78.8207 253.456 78.626 253.617 78.4573C253.778 78.2887 253.979 78.1497 254.207 78.0489C254.434 77.9482 254.684 77.8878 254.94 77.8715C267.437 76.4121 290.494 86.6373 296.978 99.0833C297.078 99.2737 297.132 99.4788 297.138 99.6868C297.143 99.8949 297.099 100.102 297.009 100.296C296.919 100.489 296.785 100.666 296.613 100.816C296.442 100.966 296.237 101.086 296.01 101.168C295.769 101.241 295.513 101.272 295.258 101.259Z" fill="#37474F"/>
<path d="M299.678 87.6367C300.304 87.9437 300.774 88.434 300.998 89.0141C301.222 89.5943 301.185 90.2236 300.894 90.7822C294.097 104.171 290.516 120.533 290.516 138.445V140.847L290.29 141.047C290.175 141.148 290.036 141.228 289.883 141.281C289.729 141.334 289.564 141.359 289.397 141.355C288.971 141.333 288.552 141.247 288.161 141.101C287.965 141.036 287.763 140.981 287.558 140.938C286.774 140.938 286.022 140.675 285.467 140.208C284.913 139.74 284.601 139.106 284.601 138.445C284.601 119.862 288.354 102.838 295.474 88.8152C295.636 88.4898 295.878 88.1973 296.185 87.9571C296.491 87.717 296.855 87.5346 297.252 87.4223C297.649 87.3099 298.07 87.2701 298.486 87.3055C298.903 87.3409 299.305 87.4508 299.668 87.6277L299.678 87.6367Z" fill="#455A64"/>
<path d="M290.483 140.259V140.866C290.445 141.422 290.271 141.965 289.971 142.462C289.671 142.958 289.252 143.396 288.74 143.749L257.295 162.894C256.763 163.186 256.148 163.355 255.513 163.382C254.878 163.409 254.246 163.294 253.682 163.048L209.375 141.482C208.835 141.183 208.385 140.781 208.062 140.308C207.739 139.836 207.552 139.307 207.514 138.763V138.137C207.544 137.601 207.741 137.082 208.085 136.63C208.428 136.178 208.906 135.81 209.471 135.563L249.262 120.071C249.873 119.867 250.529 119.775 251.185 119.801C251.842 119.828 252.484 119.972 253.069 120.225L288.633 137.539C289.171 137.839 289.619 138.242 289.94 138.714C290.262 139.186 290.447 139.715 290.483 140.259Z" fill="#263238"/>
<path d="M288.622 137.539L253.058 120.225C252.473 119.972 251.83 119.828 251.174 119.801C250.517 119.775 249.862 119.867 249.251 120.071L209.46 135.563C208.385 135.98 208.385 136.723 209.363 137.231L253.692 158.796C254.257 159.042 254.889 159.158 255.524 159.131C256.158 159.104 256.773 158.935 257.306 158.642L288.729 139.506C288.946 139.41 289.126 139.264 289.247 139.084C289.369 138.905 289.428 138.7 289.417 138.494C289.405 138.288 289.324 138.088 289.184 137.919C289.043 137.75 288.848 137.618 288.622 137.539Z" fill="#37474F"/>
<path d="M58.8794 140.102V186.568C58.8667 186.773 58.7968 186.973 58.6753 187.151C58.5539 187.329 58.3843 187.48 58.1804 187.593L56.2984 188.499C56.0841 188.593 55.8462 188.642 55.6048 188.642C55.3634 188.642 55.1254 188.593 54.9111 188.499L53.0292 187.593C52.8253 187.48 52.6557 187.329 52.5343 187.151C52.4128 186.973 52.3429 186.773 52.3302 186.568V140.102C52.3287 140.012 52.3486 139.923 52.3886 139.84C52.4286 139.757 52.488 139.682 52.5632 139.618C52.6383 139.555 52.7278 139.505 52.8264 139.471C52.9249 139.437 53.0304 139.421 53.1367 139.422H58.0729C58.1792 139.421 58.2847 139.437 58.3832 139.471C58.4817 139.505 58.5712 139.555 58.6464 139.618C58.7216 139.682 58.781 139.757 58.821 139.84C58.861 139.923 58.8809 140.012 58.8794 140.102Z" fill="#263238"/>
<path d="M53.1377 139.422H54.8046C55.0185 139.422 55.2236 139.494 55.3749 139.621C55.5262 139.749 55.6111 139.921 55.6111 140.102V188.146C55.6111 188.526 55.2993 188.68 54.9229 188.49L53.0409 187.583C52.837 187.471 52.6675 187.32 52.546 187.142C52.4245 186.964 52.3546 186.764 52.3419 186.559V140.102C52.3404 140.013 52.36 139.925 52.3993 139.842C52.4387 139.76 52.4971 139.685 52.5711 139.622C52.6452 139.558 52.7334 139.508 52.8306 139.474C52.9279 139.44 53.0323 139.422 53.1377 139.422Z" fill="#455A64"/>
<path d="M90.5181 155.44V201.906C90.5054 202.111 90.4355 202.311 90.314 202.489C90.1925 202.667 90.023 202.818 89.8191 202.931L87.9371 203.837C87.7195 203.927 87.4804 203.973 87.2381 203.973C86.9958 203.973 86.7567 203.927 86.5391 203.837L84.6678 202.931C84.464 202.818 84.2944 202.667 84.1729 202.489C84.0515 202.311 83.9816 202.111 83.9688 201.906V155.44C83.9674 155.35 83.9873 155.261 84.0273 155.178C84.0673 155.095 84.1266 155.02 84.2018 154.956C84.277 154.893 84.3665 154.843 84.465 154.809C84.5635 154.775 84.6691 154.759 84.7754 154.76H89.7115C89.9255 154.76 90.1306 154.831 90.2819 154.959C90.4331 155.086 90.5181 155.259 90.5181 155.44Z" fill="#263238"/>
<path d="M84.7754 154.76H86.4315C86.5379 154.759 86.6434 154.775 86.7419 154.809C86.8404 154.843 86.9299 154.893 87.0051 154.956C87.0803 155.02 87.1396 155.095 87.1796 155.178C87.2197 155.261 87.2395 155.35 87.2381 155.44V203.483C87.2381 203.864 86.9262 204.009 86.5391 203.828L84.6678 202.921C84.464 202.809 84.2944 202.658 84.1729 202.48C84.0515 202.302 83.9816 202.102 83.9688 201.897V155.44C83.9674 155.35 83.9873 155.261 84.0273 155.178C84.0673 155.095 84.1266 155.02 84.2018 154.956C84.277 154.893 84.3665 154.843 84.465 154.809C84.5635 154.775 84.6691 154.759 84.7754 154.76Z" fill="#455A64"/>
<path d="M88.4516 121.319C88.4034 121.644 88.4317 121.973 88.5348 122.289C88.638 122.605 88.8139 122.9 89.0526 123.159C89.2913 123.417 89.5881 123.634 89.926 123.795C90.2639 123.957 90.6363 124.061 91.0219 124.101H91.3875C92.1087 124.102 92.8052 123.88 93.3459 123.477C93.8866 123.075 94.2342 122.52 94.3234 121.917C96.0226 110.441 93.6029 84.7509 87.7741 70.3196C87.1719 68.833 85.4727 68.5066 83.8596 69.2953C82.6336 69.8936 81.7087 70.8001 82.2142 71.9332C87.7633 85.5305 90.054 110.268 88.4516 121.319Z" fill="#FF5680"/>
<path d="M54.1257 127.883C53.8275 127.886 53.5328 127.829 53.2663 127.716C52.9998 127.603 52.7694 127.438 52.5944 127.235C52.4194 127.031 52.305 126.795 52.2608 126.547C52.2166 126.298 52.2439 126.044 52.3405 125.807C56.6421 114.63 78.1505 104.686 91.9803 104.686C92.4795 104.686 92.9582 104.853 93.3111 105.15C93.664 105.448 93.8623 105.851 93.8623 106.272C93.8623 106.693 93.664 107.096 93.3111 107.394C92.9582 107.691 92.4795 107.858 91.9803 107.858C79.4625 107.858 59.7178 117.041 55.9108 126.795C55.7895 127.113 55.5509 127.39 55.2298 127.585C54.9087 127.781 54.5219 127.885 54.1257 127.883Z" fill="#37474F"/>
<path d="M52.1044 113.432C51.9034 113.43 51.7039 113.403 51.5129 113.35C51.0397 113.218 50.6481 112.932 50.4243 112.556C50.2005 112.181 50.1627 111.746 50.3192 111.347C54.8467 99.7346 76.9143 90.3343 90.7119 91.5399C91.1975 91.5941 91.6388 91.8058 91.9423 92.1299C92.2457 92.454 92.3872 92.8651 92.3368 93.2758C92.2864 93.6865 92.048 94.0644 91.6723 94.3293C91.2966 94.5942 90.8132 94.7252 90.3247 94.6945C78.1187 93.643 57.8686 102.164 53.8896 112.344C53.7653 112.66 53.526 112.936 53.2055 113.131C52.8851 113.326 52.4998 113.431 52.1044 113.432Z" fill="#37474F"/>
<path d="M47.5858 102.255C47.2733 102.253 46.9663 102.185 46.6922 102.059C46.4181 101.932 46.1855 101.75 46.0151 101.53C45.8447 101.309 45.7418 101.056 45.7156 100.793C45.6895 100.531 45.7408 100.267 45.8652 100.025C52.3177 87.5791 75.4176 77.363 87.9032 78.8134C88.3981 78.8711 88.8455 79.0921 89.147 79.4279C89.4485 79.7636 89.5794 80.1866 89.511 80.6037C89.4425 81.0208 89.1803 81.3979 88.782 81.6521C88.3837 81.9062 87.8819 82.0166 87.387 81.9589C76.3425 80.6626 55.1245 90.1807 49.3065 101.303C49.1592 101.585 48.9184 101.825 48.613 101.994C48.3077 102.162 47.951 102.253 47.5858 102.255Z" fill="#37474F"/>
<path d="M43.1241 88.6208C42.4977 88.9295 42.0278 89.4214 41.8038 90.003C41.5797 90.5847 41.6171 91.2155 41.9089 91.7754C48.7162 105.164 52.2974 121.517 52.2974 139.429V141.832L52.5232 142.031C52.638 142.132 52.7768 142.212 52.9306 142.265C53.0844 142.318 53.2497 142.344 53.4158 142.339C53.8427 142.317 54.2614 142.231 54.6525 142.085C54.8487 142.02 55.0499 141.965 55.2548 141.922C56.0391 141.922 56.7914 141.66 57.346 141.192C57.9006 140.725 58.2122 140.091 58.2122 139.429C58.2122 120.855 54.459 103.823 47.329 89.7993C47.1653 89.4761 46.9225 89.1858 46.6164 88.9474C46.3103 88.7089 45.9479 88.5276 45.5529 88.4155C45.1579 88.3034 44.7392 88.2629 44.3243 88.2967C43.9095 88.3306 43.5078 88.4379 43.1456 88.6118L43.1241 88.6208Z" fill="#455A64"/>
<path d="M52.3301 141.254V141.862C52.3623 142.414 52.531 142.956 52.8255 143.45C53.1199 143.945 53.5335 144.383 54.04 144.735L85.4637 163.889C85.998 164.178 86.6124 164.344 87.2461 164.371C87.8798 164.398 88.511 164.285 89.0771 164.043L133.395 142.469C133.939 142.172 134.393 141.771 134.718 141.298C135.043 140.826 135.231 140.295 135.266 139.749V139.124C135.231 138.589 135.032 138.071 134.689 137.62C134.346 137.169 133.871 136.8 133.309 136.55L93.5186 121.067C92.9064 120.861 92.2494 120.768 91.5912 120.793C90.933 120.818 90.2886 120.961 89.7008 121.212L54.1905 138.535C53.6476 138.832 53.196 139.233 52.8726 139.706C52.5492 140.179 52.3633 140.709 52.3301 141.254Z" fill="#263238"/>
<path d="M54.1899 138.535L89.7432 121.212C90.331 120.961 90.9754 120.818 91.6336 120.793C92.2918 120.768 92.9488 120.861 93.561 121.067L133.351 136.55C134.427 136.976 134.427 137.719 133.437 138.217L89.1195 159.792C88.5534 160.033 87.9222 160.146 87.2885 160.119C86.6548 160.092 86.0404 159.926 85.5061 159.638L54.0394 140.502C53.8202 140.405 53.6391 140.257 53.5179 140.075C53.3967 139.893 53.3407 139.685 53.3567 139.477C53.3726 139.269 53.4598 139.069 53.6077 138.902C53.7556 138.735 53.9578 138.607 54.1899 138.535Z" fill="#37474F"/>
<path d="M155.387 189.931C162.377 198.289 168.013 200.329 169.938 202.151C171.863 203.973 170.572 207.417 165.636 208.097C160.7 208.777 155.463 207.626 152.408 204.888C149.354 202.151 147.322 198.615 144.181 196.585C141.041 194.554 139.417 193.992 139.03 191.69C138.643 189.387 141.342 182.625 141.342 182.625L155.387 189.931Z" fill="#FF5680"/>
<path d="M152.375 177.412C151.569 180.349 150.719 182.914 152.956 186.549C153.688 187.715 154.499 188.844 155.387 189.931C159.462 194.889 162.786 198.769 163.377 199.449C163.968 200.129 160.258 202.168 156.172 200.582C152.085 198.996 148.762 193.756 146.192 190.611C145.041 189.187 143.923 187.891 143.019 186.903C141.826 185.57 141.245 183.918 141.385 182.253L141.793 177.53L152.375 177.412Z" fill="#FFA8A7"/>
<path d="M129.556 200.166C136.546 208.524 142.181 210.573 144.117 212.395C146.052 214.217 144.74 217.652 139.815 218.332C134.89 219.012 129.642 217.87 126.598 215.132C123.555 212.395 121.501 208.86 118.36 206.829C115.22 204.798 113.596 204.236 113.209 201.934C112.822 199.632 115.532 192.869 115.532 192.869L129.556 200.166Z" fill="#37474F"/>
<path d="M126.542 187.656C125.736 190.593 124.886 193.159 127.134 196.785C127.853 197.955 128.661 199.084 129.554 200.166C133.629 205.133 136.952 209.013 137.544 209.693C138.135 210.373 134.425 212.412 130.349 210.817C126.273 209.222 122.929 204 120.359 200.846C119.219 199.422 118.09 198.126 117.197 197.138C115.993 195.806 115.408 194.149 115.552 192.479L115.96 187.765L126.542 187.656Z" fill="#FFA8A7"/>
<path d="M91.2402 64.0364C85.5643 64.0364 80.1209 62.1359 76.1075 58.7529C72.0941 55.3699 69.8394 50.7816 69.8394 45.9973V45.8432C69.8394 41.5999 71.8391 37.5304 75.3988 34.5299C78.9584 31.5294 83.7864 29.8438 88.8205 29.8438H93.6491C96.1426 29.8426 98.612 30.2555 100.916 31.059C103.22 31.8626 105.314 33.0409 107.078 34.5267C108.841 36.0125 110.241 37.7767 111.195 39.7184C112.15 41.6601 112.641 43.7414 112.641 45.8432V45.9973C112.641 48.3663 112.087 50.712 111.012 52.9006C109.936 55.0892 108.36 57.0778 106.373 58.7529C104.386 60.428 102.026 61.7567 99.4299 62.6633C96.8334 63.5698 94.0505 64.0364 91.2402 64.0364Z" fill="#37474F"/>
<path d="M112.565 107.165C111.156 106.204 109.651 104.509 108.199 100.973C107.199 98.5349 97.9501 76.607 96.4767 71.3131C96.4767 71.3131 95.1647 69.7902 98.6276 67.8503C103.241 67.4062 107.231 67.4243 110.457 74.6671C113.683 81.9099 120.2 99.0516 120.2 99.0516" fill="#FFA8A7"/>
<path d="M66.7818 121.313C64.4373 124.893 62.4801 131.71 64.717 137.167C65.9752 140.186 82.784 155.777 94.6243 154.472C115.057 152.233 133.985 129.362 133.985 129.362L106.906 116.336L66.7818 121.313Z" fill="#FF5680"/>
<g opacity="0.1">
<path opacity="0.1" d="M66.7818 121.309C64.4373 124.889 62.4801 131.706 64.717 137.163C65.9752 140.182 82.784 155.773 94.6243 154.468C115.057 152.229 133.985 129.358 133.985 129.358L106.906 116.332L66.7818 121.309Z" fill="black"/>
</g>
<path d="M97.3368 67.9119C100.455 67.7034 104.155 67.6852 107.661 73.0788C110.403 77.2759 111.887 79.0163 111.78 84.7453C111.704 88.8789 108.693 93.8555 108.016 97.1551C107.338 100.455 106.994 115.04 106.94 116.336C104.336 118.812 101.15 120.804 97.5849 122.186C94.0193 123.569 90.1519 124.312 86.2277 124.368C72.6452 124.676 66.8164 121.313 66.8164 121.313L77.1834 105.622L74.4734 73.7224L84.6146 68.6099L97.3368 67.9119Z" fill="#FF5680"/>
<g opacity="0.5">
<path opacity="0.5" d="M97.3372 67.908C100.456 67.6995 104.155 67.6813 107.661 73.0749C110.404 77.272 111.888 79.0124 111.78 84.7414C111.705 88.875 108.694 93.8516 108.016 97.1512C107.339 100.451 106.994 115.036 106.941 116.332C104.337 118.808 101.151 120.8 97.5854 122.182C94.0198 123.565 90.1523 124.308 86.2282 124.364C72.6457 124.672 66.8169 121.309 66.8169 121.309L77.1839 105.618L74.4739 73.7185L84.6151 68.606L97.3372 67.908Z" fill="white"/>
</g>
<path d="M102.939 37.1348C105.197 38.2679 110.66 43.0541 110.392 53.107C110.155 61.619 106.886 63.7311 105.24 64.3294C103.595 64.9276 100.422 64.5741 97.336 64.139V69.2516C97.336 69.2516 101.638 73.4214 101.326 75.7601C101.014 78.0989 95.1744 78.6609 91.1954 76.3675C88.607 74.8011 86.3863 72.8431 84.6461 70.5932V58.2468C84.6461 58.2468 82.5598 60.5856 79.1615 58.6819C75.7631 56.7783 75.6233 52.0555 77.6021 50.3604C79.5809 48.6653 83.8503 49.2092 84.6461 51.5479C84.6461 51.5479 88.8402 52.4544 95.4003 49.4086C101.96 46.3628 102.509 40.4434 102.939 37.1348Z" fill="#FFA8A7"/>
<path d="M99.1107 50.9655C99.1125 51.1751 99.0412 51.3805 98.9057 51.5562C98.7702 51.7319 98.5765 51.8702 98.3485 51.9538C98.1206 52.0375 97.8685 52.0629 97.6236 52.0269C97.3787 51.9909 97.1517 51.895 96.9709 51.7512C96.79 51.6074 96.6633 51.4219 96.6064 51.2179C96.5495 51.0139 96.565 50.8003 96.6509 50.6037C96.7368 50.407 96.8893 50.2359 97.0895 50.1117C97.2898 49.9875 97.5289 49.9156 97.7772 49.9049C97.9476 49.9001 98.1174 49.9238 98.2768 49.9746C98.4363 50.0254 98.5822 50.1023 98.7062 50.2009C98.8302 50.2995 98.9298 50.4179 98.9992 50.5491C99.0686 50.6803 99.1065 50.8219 99.1107 50.9655Z" fill="#37474F"/>
<path d="M96.8204 47.6838L94.1749 49.0616C93.9743 48.7593 93.9171 48.4041 94.0149 48.0677C94.1127 47.7313 94.3582 47.4386 94.7019 47.2487C94.8743 47.1583 95.0664 47.0979 95.2669 47.0708C95.4674 47.0438 95.6723 47.0508 95.8695 47.0913C96.0668 47.1318 96.2525 47.2051 96.4158 47.3068C96.5791 47.4085 96.7166 47.5367 96.8204 47.6838Z" fill="#37474F"/>
<path d="M99.4439 58.1816L102.434 58.9884C102.382 59.1565 102.29 59.3139 102.164 59.4513C102.038 59.5887 101.88 59.7032 101.7 59.7879C101.521 59.8725 101.322 59.9257 101.117 59.9441C100.913 59.9625 100.706 59.9457 100.509 59.8949C100.1 59.7844 99.7589 59.5428 99.5597 59.2222C99.3605 58.9016 99.3189 58.5278 99.4439 58.1816Z" fill="#F28F8F"/>
<path d="M108.886 50.1987C108.899 50.3411 108.878 50.4844 108.825 50.6201C108.772 50.7558 108.688 50.8813 108.577 50.9892C108.465 51.0972 108.33 51.1855 108.178 51.2489C108.026 51.3124 107.861 51.3498 107.692 51.359C107.347 51.3664 107.013 51.2593 106.762 51.0608C106.51 50.8624 106.362 50.5886 106.348 50.2984C106.34 50.1579 106.365 50.0176 106.422 49.8853C106.478 49.753 106.565 49.6314 106.677 49.5274C106.79 49.4235 106.925 49.3392 107.076 49.2794C107.227 49.2196 107.391 49.1854 107.557 49.1789C107.724 49.1723 107.891 49.1935 108.048 49.2412C108.204 49.2889 108.349 49.3622 108.472 49.4569C108.595 49.5516 108.695 49.6659 108.766 49.7931C108.837 49.9204 108.878 50.0582 108.886 50.1987Z" fill="#37474F"/>
<path d="M102.94 49.5859L103.145 56.0311L107.167 54.9795L102.94 49.5859Z" fill="#F28F8F"/>
<path d="M97.3365 64.1436C94.7663 63.8988 89.615 62.5844 88.4858 61.125C88.7052 62.0568 89.3162 62.8904 90.2065 63.4728C91.8949 64.8235 97.3365 65.8025 97.3365 65.8025V64.1436Z" fill="#F28F8F"/>
<path d="M101.359 36.4025C101.359 36.4025 103.596 42.9564 100.918 49.0933C100.918 49.0933 110.661 49.61 111.199 43.4006C111.199 43.4006 110.726 38.288 106.413 35.2422L101.359 36.4025Z" fill="#37474F"/>
<path d="M78.7739 29.0128C82.183 31.5691 79.3869 34.0438 76.1284 37.1259C72.8699 40.2079 70.3857 42.7189 66.9766 40.1536C65.3736 38.7996 64.4462 36.9799 64.3846 35.0678C64.323 33.1557 65.1319 31.2962 66.6453 29.8709C68.1588 28.4457 70.2619 27.5626 72.5233 27.4031C74.7846 27.2435 77.0327 27.8195 78.8062 29.0128H78.7739Z" fill="#37474F"/>
<path d="M150.718 211.633V273.6C150.737 273.873 150.831 274.138 150.994 274.374C151.156 274.611 151.382 274.811 151.654 274.96L154.16 276.175C154.447 276.3 154.766 276.365 155.09 276.365C155.413 276.365 155.732 276.3 156.02 276.175L158.526 274.96C158.797 274.811 159.024 274.611 159.186 274.374C159.349 274.138 159.443 273.873 159.461 273.6V211.633C159.461 211.393 159.348 211.162 159.146 210.992C158.945 210.822 158.671 210.727 158.386 210.727H151.794C151.508 210.727 151.235 210.822 151.033 210.992C150.832 211.162 150.718 211.393 150.718 211.633Z" fill="#263238"/>
<path d="M158.355 210.728H156.204C155.919 210.728 155.646 210.824 155.444 210.994C155.242 211.164 155.129 211.394 155.129 211.635V275.723C155.129 276.222 155.548 276.43 156.054 276.176L158.559 274.962C158.831 274.813 159.057 274.612 159.22 274.376C159.382 274.14 159.477 273.875 159.495 273.602V211.635C159.495 211.511 159.466 211.388 159.408 211.275C159.349 211.161 159.264 211.059 159.158 210.974C159.051 210.889 158.925 210.823 158.787 210.781C158.649 210.739 158.502 210.721 158.355 210.728Z" fill="#455A64"/>
<path d="M264.305 156.352V218.319C264.324 218.591 264.417 218.855 264.577 219.091C264.738 219.327 264.961 219.528 265.23 219.679L267.735 220.903C268.027 221.021 268.347 221.083 268.671 221.083C268.995 221.083 269.315 221.021 269.607 220.903L272.112 219.679C272.381 219.528 272.604 219.327 272.764 219.091C272.925 218.855 273.018 218.591 273.037 218.319V156.352C273.037 156.111 272.924 155.881 272.722 155.711C272.52 155.541 272.247 155.445 271.962 155.445H265.38C265.095 155.445 264.821 155.541 264.62 155.711C264.418 155.881 264.305 156.111 264.305 156.352Z" fill="#263238"/>
<path d="M271.963 155.445H269.747C269.462 155.445 269.189 155.541 268.987 155.711C268.785 155.881 268.672 156.111 268.672 156.352V220.449C268.672 220.948 269.091 221.147 269.608 220.903L272.113 219.679C272.382 219.528 272.605 219.327 272.765 219.091C272.926 218.855 273.019 218.591 273.038 218.319V156.352C273.038 156.111 272.925 155.881 272.723 155.711C272.521 155.541 272.248 155.445 271.963 155.445Z" fill="#455A64"/>
<path d="M50.2544 162.737V224.704C50.2717 224.976 50.3643 225.24 50.525 225.477C50.6856 225.713 50.9097 225.914 51.1792 226.064L53.685 227.287C53.9767 227.406 54.2966 227.468 54.6206 227.468C54.9446 227.468 55.2644 227.406 55.5562 227.287L58.0619 226.064C58.3327 225.915 58.5577 225.714 58.7185 225.478C58.8793 225.241 58.9712 224.976 58.9868 224.704V162.737C58.9868 162.496 58.8735 162.266 58.6718 162.096C58.4701 161.926 58.1966 161.83 57.9114 161.83H51.3298C51.0446 161.83 50.7711 161.926 50.5694 162.096C50.3677 162.266 50.2544 162.496 50.2544 162.737Z" fill="#37474F"/>
<path d="M57.9104 161.83H55.695C55.4098 161.83 55.1363 161.926 54.9346 162.096C54.7329 162.266 54.6196 162.496 54.6196 162.737V226.834C54.6196 227.333 55.039 227.532 55.5552 227.287L58.061 226.064C58.3317 225.915 58.5567 225.714 58.7175 225.478C58.8783 225.241 58.9702 224.976 58.9858 224.704V162.737C58.9858 162.496 58.8725 162.266 58.6708 162.096C58.4692 161.926 58.1956 161.83 57.9104 161.83Z" fill="#263238"/>
<path d="M153.235 216.19L47.7477 164.856C47.2048 164.558 46.7531 164.157 46.4297 163.684C46.1063 163.212 45.9204 162.681 45.8872 162.136V161.511C45.923 160.966 46.1099 160.437 46.4331 159.964C46.7563 159.492 47.2066 159.09 47.7477 158.791L166.334 101.084C166.913 100.839 167.552 100.711 168.2 100.711C168.848 100.711 169.487 100.839 170.066 101.084L275.575 152.419C276.118 152.716 276.569 153.117 276.893 153.59C277.216 154.063 277.402 154.593 277.435 155.138V155.764C277.401 156.308 277.215 156.839 276.892 157.311C276.568 157.784 276.117 158.185 275.575 158.483L156.956 216.19C156.381 216.44 155.743 216.571 155.096 216.571C154.448 216.571 153.811 216.44 153.235 216.19Z" fill="#37474F"/>
<path d="M155.128 106.553L47.7477 158.794C47.2066 159.092 46.7563 159.494 46.4331 159.966C46.1099 160.439 45.923 160.969 45.8872 161.513V162.138C45.9204 162.683 46.1063 163.214 46.4297 163.687C46.7531 164.159 47.2048 164.561 47.7477 164.858L153.235 216.192C153.806 216.454 154.447 216.585 155.096 216.573L155.128 106.553Z" fill="#263238"/>
<path d="M153.236 211.939L47.748 160.604C46.6726 160.106 46.6726 159.299 47.748 158.791L166.334 101.084C166.913 100.839 167.552 100.711 168.2 100.711C168.848 100.711 169.487 100.839 170.066 101.084L275.575 152.419C275.803 152.48 276.002 152.601 276.143 152.764C276.284 152.927 276.36 153.123 276.36 153.325C276.36 153.527 276.284 153.723 276.143 153.886C276.002 154.049 275.803 154.17 275.575 154.232L156.957 211.939C156.381 212.189 155.743 212.32 155.096 212.32C154.449 212.32 153.811 212.189 153.236 211.939Z" fill="#455A64"/>
<path d="M104.164 144.309V145.215C104.166 145.671 104.31 146.119 104.579 146.515C104.849 146.91 105.235 147.24 105.701 147.472L135.103 161.731C135.572 161.957 136.102 162.076 136.641 162.076C137.181 162.076 137.711 161.957 138.179 161.731L192.111 135.443C192.581 135.217 192.972 134.889 193.244 134.495C193.516 134.1 193.659 133.652 193.66 133.195V132.561L136.663 160.308L104.164 144.309Z" fill="#E6E6E6"/>
<path d="M193.661 132.606L161.678 117.051C161.401 116.913 161.085 116.84 160.764 116.84C160.442 116.84 160.126 116.913 159.849 117.051L104.369 144.046C104.306 144.076 104.254 144.119 104.218 144.172C104.182 144.224 104.163 144.284 104.163 144.345C104.163 144.406 104.182 144.465 104.218 144.518C104.254 144.57 104.306 144.614 104.369 144.644L136.631 160.353L193.661 132.606Z" fill="#FAFAFA"/>
<path d="M136.351 158.071L119.101 149.686L169.538 125.139L186.874 133.487L136.351 158.071Z" fill="#E6E6E6"/>
<path d="M127.877 134.745L128.189 134.899L136.642 139.014L151.676 131.69L151.988 131.545L143.224 127.275L127.877 134.745Z" fill="#E0E0E0"/>
<path d="M120.156 99.0508C120.156 99.0508 128.469 104.843 138.051 111.252C142.353 114.144 147.17 117.054 151.128 117.416C154.268 117.697 159.85 117.888 161.043 118.812C162.237 119.737 165.689 124.559 166.808 126.118C167.926 127.678 167.184 131.331 163.581 131.557C159.979 131.784 158.452 129.617 156.946 128.267C156.12 127.514 155.208 126.831 154.225 126.227C154.225 126.227 150.472 126.399 148.343 125.321C146.213 124.242 144.998 123.626 144.998 123.626C137.535 120.099 118.661 111.279 112.585 107.128" fill="#FFA8A7"/>
<path d="M128.189 134.897L136.642 139.013L151.677 131.688L143.224 127.582L128.189 134.897Z" fill="#E6E6E6"/>
<path d="M136.644 160.354V162.086C137.183 162.085 137.713 161.966 138.181 161.741L192.114 135.453C192.584 135.226 192.974 134.899 193.246 134.504C193.518 134.11 193.662 133.661 193.662 133.205V132.57L136.644 160.354Z" fill="#E0E0E0"/>
<path d="M137.514 160.739C138.023 160.907 138.571 160.976 139.116 160.941C139.661 160.907 140.191 160.769 140.665 160.54L194.36 134.406C194.826 134.18 195.227 133.871 195.533 133.499C195.84 133.128 196.046 132.704 196.135 132.257L202.017 102.706C202.105 102.213 202.054 101.71 201.867 101.237C201.68 100.764 201.363 100.336 200.942 99.9863L145.138 127.181C144.795 127.35 144.5 127.581 144.273 127.856C144.047 128.132 143.894 128.446 143.826 128.776L137.514 160.739Z" fill="#EBEBEB"/>
<path d="M136.644 160.356L137.009 160.537C137.173 160.611 137.342 160.677 137.515 160.737L143.87 128.792C143.938 128.462 144.091 128.148 144.317 127.872C144.544 127.596 144.839 127.366 145.182 127.197L200.986 100.002C200.761 99.8149 200.508 99.6534 200.233 99.5215L144.311 126.716C143.968 126.885 143.673 127.116 143.446 127.392C143.219 127.667 143.067 127.981 142.999 128.311L136.644 160.356Z" fill="#F5F5F5"/>
<path d="M167.754 133.461C168.152 131.485 170.572 128.856 173.131 127.596C175.691 126.336 177.519 126.916 177.121 128.892C176.723 130.868 174.303 133.497 171.744 134.757C169.184 136.017 167.367 135.446 167.754 133.461Z" fill="#E0E0E0"/>
<path d="M102.67 161.83L98.3042 163.951L102.67 166.082L107.037 163.951L102.67 161.83Z" fill="#FF5680"/>
<path d="M82.0015 167.769L97.6166 160.172C97.9069 160.055 98.2248 159.994 98.5468 159.994C98.8688 159.994 99.1867 160.055 99.4771 160.172L110.715 165.611C110.987 165.76 111.213 165.961 111.375 166.197C111.538 166.433 111.632 166.698 111.651 166.971V167.279C111.635 167.552 111.542 167.818 111.379 168.055C111.216 168.292 110.989 168.492 110.715 168.639L95.1109 176.244C94.8191 176.363 94.4993 176.425 94.1753 176.425C93.8512 176.425 93.5314 176.363 93.2396 176.244L82.0015 170.806C81.73 170.657 81.5038 170.456 81.3412 170.22C81.1787 169.984 81.0844 169.718 81.0659 169.446V169.129C81.0844 168.856 81.1787 168.591 81.3412 168.355C81.5038 168.118 81.73 167.918 82.0015 167.769Z" fill="#FF5680"/>
<path d="M93.2063 174.114L82.0004 168.675C81.4842 168.431 81.4842 168.023 82.0004 167.769L97.6155 160.172C97.9058 160.055 98.2237 159.994 98.5457 159.994C98.8677 159.994 99.1856 160.055 99.476 160.172L110.714 165.611C110.825 165.644 110.922 165.706 110.99 165.787C111.058 165.868 111.095 165.965 111.095 166.065C111.095 166.164 111.058 166.261 110.99 166.342C110.922 166.424 110.825 166.485 110.714 166.518L95.0775 174.114C94.7879 174.239 94.4672 174.304 94.1419 174.304C93.8166 174.304 93.4959 174.239 93.2063 174.114Z" fill="#FF5680"/>
<g opacity="0.3">
<path opacity="0.3" d="M93.2068 174.11L82.0009 168.671C81.4847 168.427 81.4847 168.019 82.0009 167.765L97.616 160.169C97.9063 160.051 98.2242 159.99 98.5462 159.99C98.8682 159.99 99.1861 160.051 99.4765 160.169L110.715 165.607C110.826 165.64 110.922 165.702 110.991 165.783C111.059 165.864 111.095 165.961 111.095 166.061C111.095 166.16 111.059 166.257 110.991 166.338C110.922 166.42 110.826 166.481 110.715 166.514L95.078 174.11C94.7884 174.235 94.4677 174.3 94.1424 174.3C93.8171 174.3 93.4964 174.235 93.2068 174.11Z" fill="white"/>
</g>
<path d="M97.378 161.689C96.7542 161.998 96.7542 162.487 97.378 162.786C97.7271 162.938 98.1143 163.017 98.5072 163.017C98.9 163.017 99.2872 162.938 99.6363 162.786C100.26 162.487 100.26 161.998 99.6363 161.689C99.2857 161.542 98.8991 161.465 98.5072 161.465C98.1152 161.465 97.7286 161.542 97.378 161.689Z" fill="#FF5680"/>
<path d="M93.0127 163.819C92.389 164.118 92.389 164.608 93.0127 164.916C93.3634 165.063 93.7499 165.14 94.1419 165.14C94.5339 165.14 94.9204 165.063 95.2711 164.916C95.8948 164.608 95.8948 164.118 95.2711 163.819C94.922 163.667 94.5348 163.588 94.1419 163.588C93.749 163.588 93.3619 163.667 93.0127 163.819Z" fill="#FF5680"/>
<g opacity="0.2">
<path opacity="0.2" d="M97.3789 161.685C96.7552 161.994 96.7552 162.483 97.3789 162.782C97.7281 162.934 98.1153 163.013 98.5081 163.013C98.901 163.013 99.2882 162.934 99.6373 162.782C100.261 162.483 100.261 161.994 99.6373 161.685C99.2867 161.538 98.9001 161.461 98.5081 161.461C98.1162 161.461 97.7296 161.538 97.3789 161.685Z" fill="black"/>
</g>
<g opacity="0.2">
<path opacity="0.2" d="M93.0122 163.815C92.3885 164.114 92.3885 164.604 93.0122 164.912C93.3629 165.06 93.7495 165.136 94.1414 165.136C94.5334 165.136 94.92 165.06 95.2706 164.912C95.8943 164.604 95.8943 164.114 95.2706 163.815C94.9215 163.663 94.5343 163.584 94.1414 163.584C93.7485 163.584 93.3614 163.663 93.0122 163.815Z" fill="black"/>
</g>
<path d="M82.5163 172.194C82.4208 172.194 82.327 172.173 82.244 172.133C82.161 172.094 82.0918 172.036 82.0431 171.967C81.9762 171.862 81.9602 171.739 81.9983 171.624C82.0363 171.509 82.1256 171.411 82.2474 171.351L83.9358 170.526C84.0603 170.466 84.2076 170.449 84.3463 170.48C84.485 170.51 84.604 170.585 84.6779 170.689C84.7138 170.74 84.7371 170.797 84.7463 170.857C84.7554 170.916 84.7503 170.976 84.7313 171.034C84.7122 171.091 84.6795 171.145 84.6352 171.192C84.591 171.238 84.536 171.277 84.4735 171.305L82.7851 172.13C82.7044 172.172 82.6112 172.194 82.5163 172.194Z" fill="#FF5680"/>
<path d="M82.5158 172.648C82.2306 172.648 81.9571 172.553 81.7554 172.383C81.5537 172.213 81.4404 171.982 81.4404 171.742V157.582C81.4404 157.342 81.5537 157.111 81.7554 156.941C81.9571 156.771 82.2306 156.676 82.5158 156.676C82.8011 156.676 83.0746 156.771 83.2763 156.941C83.478 157.111 83.5913 157.342 83.5913 157.582V171.742C83.5913 171.982 83.478 172.213 83.2763 172.383C83.0746 172.553 82.8011 172.648 82.5158 172.648Z" fill="#FF5680"/>
<g opacity="0.2">
<path opacity="0.2" d="M82.5153 172.188C82.4199 172.188 82.326 172.167 82.243 172.127C82.16 172.088 82.0908 172.03 82.0421 171.961C81.9753 171.856 81.9592 171.733 81.9973 171.618C82.0354 171.503 82.1246 171.405 82.2465 171.345L83.9349 170.52C84.0593 170.46 84.2066 170.443 84.3453 170.474C84.484 170.504 84.603 170.58 84.6769 170.683C84.7129 170.735 84.7361 170.792 84.7453 170.851C84.7545 170.91 84.7494 170.97 84.7303 171.028C84.7112 171.085 84.6786 171.139 84.6343 171.186C84.59 171.232 84.535 171.271 84.4726 171.299L82.7842 172.124C82.7034 172.166 82.6102 172.188 82.5153 172.188Z" fill="black"/>
<path opacity="0.2" d="M82.5158 172.642C82.2306 172.642 81.9571 172.547 81.7554 172.377C81.5537 172.207 81.4404 171.976 81.4404 171.736V157.576C81.4404 157.336 81.5537 157.105 81.7554 156.935C81.9571 156.765 82.2306 156.67 82.5158 156.67C82.8011 156.67 83.0746 156.765 83.2763 156.935C83.478 157.105 83.5913 157.336 83.5913 157.576V171.736C83.5913 171.976 83.478 172.207 83.2763 172.377C83.0746 172.547 82.8011 172.642 82.5158 172.642Z" fill="black"/>
</g>
<path d="M111.617 170.589C111.24 170.591 110.869 170.51 110.541 170.353L108.025 169.129C107.963 169.1 107.909 169.061 107.866 169.014C107.823 168.967 107.791 168.913 107.773 168.856C107.755 168.798 107.751 168.738 107.761 168.679C107.771 168.621 107.795 168.564 107.831 168.513C107.903 168.41 108.02 168.335 108.156 168.303C108.292 168.271 108.438 168.284 108.563 168.341L111.079 169.565C111.23 169.64 111.403 169.68 111.579 169.68C111.755 169.68 111.928 169.64 112.079 169.565L132.921 159.512C132.982 159.482 133.05 159.463 133.12 159.455C133.191 159.447 133.262 159.451 133.33 159.467C133.399 159.482 133.463 159.509 133.519 159.546C133.575 159.582 133.622 159.628 133.657 159.679C133.693 159.731 133.716 159.788 133.725 159.848C133.734 159.907 133.729 159.967 133.711 160.025C133.692 160.082 133.66 160.136 133.617 160.184C133.574 160.231 133.52 160.271 133.459 160.3L112.649 170.353C112.336 170.507 111.98 170.588 111.617 170.589Z" fill="#F0F0F0"/>
<path d="M95.3572 155.182C95.3593 155.678 95.1871 156.162 94.8622 156.575C94.5374 156.987 94.0745 157.309 93.5324 157.5C92.9902 157.691 92.3931 157.742 91.8166 157.646C91.2401 157.551 90.7102 157.313 90.2941 156.964C89.8779 156.614 89.5941 156.168 89.4787 155.683C89.3633 155.197 89.4215 154.694 89.6458 154.236C89.8701 153.778 90.2506 153.387 90.7389 153.112C91.2273 152.836 91.8015 152.689 92.389 152.689C93.1744 152.689 93.9277 152.952 94.4841 153.419C95.0404 153.886 95.3543 154.52 95.3572 155.182Z" fill="#FF5680"/>
<path d="M92.3896 148.605C90.976 148.606 89.5891 148.93 88.3769 149.543C87.1648 150.156 86.1728 151.035 85.5069 152.086C85.3783 152.29 85.3391 152.525 85.3961 152.751C85.4532 152.976 85.6029 153.178 85.8188 153.319C85.9504 153.406 86.1029 153.468 86.2657 153.5C86.4285 153.532 86.5976 153.534 86.7614 153.506C86.9252 153.478 87.0797 153.419 87.214 153.335C87.3484 153.251 87.4594 153.144 87.5394 153.02C88.0021 152.276 88.6976 151.652 89.5507 151.217C90.4037 150.782 91.3818 150.552 92.3788 150.552C93.3759 150.552 94.3539 150.782 95.207 151.217C96.06 151.652 96.7556 152.276 97.2182 153.02C97.298 153.145 97.4095 153.254 97.5447 153.339C97.6799 153.424 97.8357 153.483 98.0009 153.511C98.166 153.54 98.3366 153.537 98.5006 153.504C98.6645 153.471 98.8178 153.408 98.9496 153.319C99.1673 153.179 99.3184 152.977 99.3756 152.751C99.4327 152.525 99.3923 152.289 99.2615 152.086C98.5974 151.036 97.6073 150.157 96.397 149.544C95.1867 148.931 93.8016 148.607 92.3896 148.605Z" fill="#FF5680"/>
<path d="M92.3889 144.615C90.2819 144.615 88.2092 145.064 86.363 145.92C84.5167 146.776 82.9569 148.011 81.8283 149.51C81.6667 149.715 81.6014 149.963 81.6451 150.206C81.6889 150.449 81.8385 150.67 82.0649 150.825C82.1932 150.909 82.3411 150.97 82.499 151.003C82.6569 151.036 82.8213 151.04 82.9814 151.016C83.1416 150.992 83.2941 150.94 83.4289 150.864C83.5637 150.787 83.6779 150.687 83.764 150.571C84.6864 149.352 85.9582 148.349 87.4619 147.655C88.9655 146.96 90.6526 146.596 92.3674 146.596C94.0821 146.596 95.7692 146.96 97.2729 147.655C98.7765 148.349 100.048 149.352 100.971 150.571C101.056 150.687 101.169 150.787 101.303 150.863C101.437 150.94 101.588 150.992 101.748 151.016C101.907 151.04 102.07 151.035 102.228 151.002C102.385 150.969 102.532 150.909 102.659 150.825C102.887 150.671 103.039 150.451 103.085 150.208C103.13 149.965 103.067 149.716 102.906 149.51C101.782 148.016 100.229 146.784 98.3906 145.929C96.5525 145.073 94.4885 144.621 92.3889 144.615Z" fill="#FF5680"/>
<path d="M111.412 139.569C103.949 136.042 88.1941 126.57 82.1072 122.445C80.7092 121.493 78.881 120.922 77.9238 117.224C77.2786 114.704 69.7292 93.3198 68.3634 85.6418C67.0299 78.1361 71.0734 75.6705 74.504 73.7578C79.4187 77.0302 79.6015 81.0822 81.8168 87.9443C84.258 95.4772 89.7104 114.341 89.7104 114.341C89.7104 114.341 96.8834 120.342 105.046 127.032C109.003 130.286 113.649 132.969 117.564 133.323C120.704 133.613 126.285 133.794 127.479 134.728C128.673 135.662 132.125 140.466 133.243 141.98C134.362 143.494 133.62 147.201 130.017 147.419C126.414 147.636 124.887 145.47 123.382 144.128C122.557 143.371 121.646 142.685 120.661 142.08C120.661 142.08 116.908 142.261 114.778 141.173C112.649 140.085 111.412 139.569 111.412 139.569Z" fill="#FFA8A7"/>
<path d="M167.302 98.9762C163.594 97.9793 159.611 97.9793 155.903 98.9762C152.816 99.9734 152.816 101.578 155.903 102.602C159.611 103.599 163.594 103.599 167.302 102.602C170.507 101.596 170.507 99.9734 167.302 98.9762Z" fill="#E0E0E0"/>
<path d="M169.958 94.6055H153.332L154.59 111.122C154.666 111.72 155.332 112.309 156.601 112.771C159.826 113.751 163.356 113.751 166.581 112.771C167.893 112.309 168.581 111.72 168.657 111.122L169.958 94.6055Z" fill="#FF5680"/>
<path d="M153.332 94.6236L153.59 97.9776C154.025 98.2264 154.49 98.436 154.977 98.6031C159.267 99.8631 163.937 99.8631 168.227 98.6031L168.667 98.4308C169.039 98.2881 169.398 98.1246 169.743 97.9413L169.99 94.6055L153.332 94.6236Z" fill="#FF5680"/>
<path opacity="0.1" d="M153.332 94.6236L153.59 97.9776C154.025 98.2264 154.49 98.436 154.977 98.6031C159.267 99.8631 163.937 99.8631 168.227 98.6031L168.667 98.4308C169.039 98.2881 169.398 98.1246 169.743 97.9413L169.99 94.6055L153.332 94.6236Z" fill="black"/>
<path d="M171.013 95.0994V92.534H169.109C168.851 92.4252 168.561 92.3165 168.259 92.2077C163.968 90.9568 159.302 90.9568 155.01 92.2077C154.709 92.3165 154.44 92.4252 154.193 92.534H152.311V95.0631C152.311 95.888 153.214 96.7129 155.01 97.3384C159.302 98.5893 163.968 98.5893 168.259 97.3384C170.077 96.7401 171.013 95.9243 171.013 95.0994Z" fill="#FF5680"/>
<g opacity="0.3">
<path opacity="0.3" d="M171.013 95.0955V92.5301H169.11C168.851 92.4213 168.561 92.3125 168.26 92.2038C163.968 90.9529 159.303 90.9529 155.011 92.2038C154.71 92.3125 154.441 92.4213 154.194 92.5301H152.312V95.0592C152.312 95.8841 153.215 96.709 155.011 97.3345C159.303 98.5853 163.968 98.5853 168.26 97.3345C170.077 96.7362 171.013 95.9204 171.013 95.0955Z" fill="white"/>
</g>
<path d="M168.227 90.3025C163.937 89.0424 159.268 89.0424 154.978 90.3025C151.386 91.5534 151.386 93.593 154.978 94.8349C159.268 96.095 163.937 96.095 168.227 94.8349C171.937 93.593 171.937 91.5534 168.227 90.3025Z" fill="#FF5680"/>
<path opacity="0.1" d="M168.227 90.3025C163.937 89.0424 159.268 89.0424 154.978 90.3025C151.386 91.5534 151.386 93.593 154.978 94.8349C159.268 96.095 163.937 96.095 168.227 94.8349C171.937 93.593 171.937 91.5534 168.227 90.3025Z" fill="white"/>
<path d="M166.592 90.5998C163.35 89.748 159.877 89.748 156.634 90.5998C153.924 91.461 153.924 92.8479 156.634 93.7091C159.875 94.5702 163.352 94.5702 166.592 93.7091C169.389 92.8479 169.389 91.461 166.592 90.5998Z" fill="#FF5680"/>
<path opacity="0.3" d="M166.592 90.5998C163.35 89.748 159.877 89.748 156.634 90.5998C153.924 91.461 153.924 92.8479 156.634 93.7091C159.875 94.5702 163.352 94.5702 166.592 93.7091C169.389 92.8479 169.389 91.461 166.592 90.5998Z" fill="white"/>
<path d="M168.625 91.8611L167.873 89.5586H155.419L154.667 91.8611H168.625Z" fill="#FF5680"/>
<path opacity="0.3" d="M168.625 91.8611L167.873 89.5586H155.419L154.667 91.8611H168.625Z" fill="white"/>
<path d="M166.044 88.3795C163.16 87.6183 160.068 87.6183 157.183 88.3795C154.785 89.141 154.785 90.3738 157.183 91.1443C160.068 91.9056 163.16 91.9056 166.044 91.1443C168.529 90.3738 168.529 89.141 166.044 88.3795Z" fill="#FF5680"/>
<path opacity="0.1" d="M167.045 89.7569C167.045 89.7569 166.981 89.8838 166.776 90.0197C166.448 90.2118 166.085 90.3586 165.701 90.4549C164.354 90.8249 162.945 91.0056 161.528 90.9897C160.137 91.0119 158.751 90.8341 157.431 90.4639C157.079 90.3614 156.748 90.2114 156.452 90.0197C156.248 89.8838 156.194 89.7841 156.194 89.7569C156.194 89.7297 156.409 89.3852 157.431 89.0589C158.751 88.6887 160.137 88.5109 161.528 88.5331C162.944 88.5142 164.354 88.6919 165.701 89.0589C166.787 89.3761 167.045 89.6934 167.045 89.7569Z" fill="#FF5680"/>
<path opacity="0.1" d="M167.045 89.7569C167.045 89.7569 166.981 89.8838 166.776 90.0197C166.448 90.2118 166.085 90.3586 165.701 90.4549C164.354 90.8249 162.945 91.0056 161.528 90.9897C160.137 91.0119 158.751 90.8341 157.431 90.4639C157.079 90.3614 156.748 90.2114 156.452 90.0197C156.248 89.8838 156.194 89.7841 156.194 89.7569C156.194 89.7297 156.409 89.3852 157.431 89.0589C158.751 88.6887 160.137 88.5109 161.528 88.5331C162.944 88.5142 164.354 88.6919 165.701 89.0589C166.787 89.3761 167.045 89.6934 167.045 89.7569Z" fill="black"/>
<path d="M166.775 90.0233C166.446 90.2153 166.083 90.3622 165.7 90.4584C164.353 90.8285 162.943 91.0092 161.527 90.9932C160.136 91.0154 158.75 90.8376 157.43 90.4675C157.077 90.3649 156.747 90.2149 156.451 90.0233C156.748 89.8354 157.078 89.6885 157.43 89.5882C158.75 89.218 160.136 89.0402 161.527 89.0624C162.943 89.0435 164.353 89.2212 165.7 89.5882C166.083 89.6844 166.446 89.8312 166.775 90.0233Z" fill="#FF5680"/>
<path d="M164.279 90.0656C164.422 89.9861 164.582 89.9315 164.75 89.9051C164.918 89.8786 165.091 89.8808 165.258 89.9115C165.441 90.0022 165.258 90.2107 164.935 90.3829C164.792 90.4656 164.631 90.5228 164.461 90.5508C164.291 90.5789 164.115 90.5773 163.946 90.546C163.731 90.4554 163.914 90.2469 164.279 90.0656Z" fill="#FF5680"/>
<path opacity="0.1" d="M164.279 90.0656C164.422 89.9861 164.582 89.9315 164.75 89.9051C164.918 89.8786 165.091 89.8808 165.258 89.9115C165.441 90.0022 165.258 90.2107 164.935 90.3829C164.792 90.4656 164.631 90.5228 164.461 90.5508C164.291 90.5789 164.115 90.5773 163.946 90.546C163.731 90.4554 163.914 90.2469 164.279 90.0656Z" fill="black"/>
<path d="M154.054 106.76C154.054 107.367 154.786 107.984 156.205 108.455C159.704 109.391 163.461 109.391 166.959 108.455C168.465 107.984 169.218 107.377 169.218 106.76L169.691 100.777C169.691 101.421 168.884 102.074 167.282 102.59C163.574 103.587 159.59 103.587 155.882 102.59C154.334 102.092 153.56 101.439 153.56 100.777L154.054 106.76Z" fill="#FF5680"/>
<path opacity="0.4" d="M154.054 106.76C154.054 107.367 154.786 107.984 156.205 108.455C159.704 109.391 163.461 109.391 166.959 108.455C168.465 107.984 169.218 107.377 169.218 106.76L169.691 100.777C169.691 101.421 168.884 102.074 167.282 102.59C163.574 103.587 159.59 103.587 155.882 102.59C154.334 102.092 153.56 101.439 153.56 100.777L154.054 106.76Z" fill="white"/>
<path d="M160.636 107.118C160.4 106.791 160.188 106.452 160.002 106.103C159.593 105.471 158.935 104.981 158.141 104.716C158.088 104.703 158.031 104.704 157.978 104.721C157.926 104.737 157.881 104.767 157.851 104.807C157.697 105.215 157.679 105.651 157.798 106.068C157.917 106.485 158.169 106.866 158.527 107.17C158.885 107.475 159.335 107.691 159.828 107.795C160.321 107.899 160.839 107.888 161.325 107.762C161.325 107.762 161.378 107.671 161.325 107.653C161.057 107.513 160.823 107.332 160.636 107.118Z" fill="#FF5680"/>
<path d="M158.593 104.533C159.021 104.673 159.415 104.879 159.754 105.14C160.115 105.41 160.404 105.74 160.604 106.11C160.833 106.581 161.203 106.994 161.679 107.307C161.704 107.322 161.732 107.333 161.761 107.34C161.791 107.346 161.822 107.347 161.852 107.342C161.882 107.338 161.911 107.329 161.937 107.315C161.963 107.301 161.985 107.283 162.002 107.262C162.259 106.849 162.343 106.375 162.24 105.917C162.136 105.46 161.851 105.045 161.432 104.741C161.084 104.409 160.62 104.176 160.107 104.077C159.594 103.978 159.057 104.017 158.571 104.189C158.533 104.206 158.502 104.231 158.481 104.263C158.46 104.294 158.45 104.33 158.452 104.367C158.454 104.403 158.469 104.438 158.494 104.467C158.519 104.497 158.553 104.519 158.593 104.533Z" fill="#FF5680"/>
</svg>
