<svg width="375" height="593" viewBox="0 0 375 593" fill="none" xmlns="http://www.w3.org/2000/svg">
<path d="M90.247 0.241743C58.1856 -0.822405 35.3863 1.63784 0 7.40223V592.5H375V44.4945C342.226 46.5343 322.633 48.3966 279.528 45.7361C250.554 44.5833 219.324 39.2623 182.513 24.1861C161.138 17.9784 137.033 3.52305 90.247 0.241743Z" fill="url(#paint0_linear)"/>
<defs>
<linearGradient id="paint0_linear" x1="-15.5106" y1="59.8641" x2="442.571" y2="68.3761" gradientUnits="userSpaceOnUse">
<stop stop-color="#FFC7D5"/>
<stop offset="1" stop-color="#FF5680"/>
</linearGradient>
</defs>
</svg>
