<svg width="96" height="96" viewBox="0 0 96 96" fill="none" xmlns="http://www.w3.org/2000/svg">
<g clip-path="url(#clip0)">
<path d="M95.5381 20.473C95.5359 20.4708 95.5335 20.4684 95.5313 20.4662L76.3294 1.26427C76.024 0.954041 75.6036 0.784424 75.1685 0.795426C74.7341 0.803226 74.3216 0.987644 74.0262 1.30648L68.0818 7.7071C67.502 8.33156 67.513 9.30086 68.1068 9.91192L68.5575 10.3754L66.1972 12.7356L62.4687 11.8043C59.1245 10.9858 55.5964 11.9879 53.1818 14.4422L46.3803 22.3687L38.4771 14.4656C36.2241 12.1997 32.88 11.4099 29.8513 12.4278C29.6705 12.4886 29.5018 12.5806 29.3528 12.6996L28.9184 13.0496L27.8651 11.9965L29.9341 9.92752C30.5589 9.30306 30.5591 8.29016 29.9347 7.6655L29.9341 7.6649L23.5335 1.26427C22.909 0.63941 21.8961 0.63921 21.2714 1.26367L21.2708 1.26427L0.468796 22.0663C-0.156065 22.6908 -0.156265 23.7037 0.468196 24.3283L0.468796 24.3289L6.86942 30.7296C7.49388 31.3544 8.50678 31.3546 9.13164 30.7302L9.13224 30.7296L9.85492 30.0069L13.6467 33.7987L12.7154 37.5272C11.8985 40.8221 12.8586 44.3047 15.2484 46.7157L28.803 60.6603V73.1697C28.8324 76.0378 30.4417 78.6556 32.9878 79.9766C34.3529 80.703 35.2054 82.1242 35.2036 83.6707V84.0036H33.6034C32.7202 84.003 32.0039 84.7186 32.0033 85.6019C32.0033 85.6025 32.0033 85.6031 32.0033 85.6037V93.6045C32.0027 94.4878 32.7184 95.2041 33.6016 95.2047C33.6022 95.2047 33.6028 95.2047 33.6034 95.2047H64.0064C64.8897 95.2053 65.606 94.4896 65.6066 93.6063C65.6066 93.6057 65.6066 93.6051 65.6066 93.6045V85.6037C65.6072 84.7204 64.8915 84.0042 64.0082 84.0036C64.0076 84.0036 64.007 84.0036 64.0064 84.0036H62.4063V82.3956L64.9425 80.0564C67.3695 78.2202 68.7991 75.3553 68.8069 72.3118V53.5668C70.7017 53.3392 72.463 52.4751 73.8028 51.116L82.2614 41.9307C84.2498 39.9567 84.9421 37.0236 84.046 34.3689C83.7896 33.5972 85.1679 31.0718 86.8101 29.135C87.1031 29.4258 87.4975 29.5918 87.9104 29.598H87.926C88.3472 29.598 88.7516 29.4318 89.0511 29.1354L95.5251 22.7348C96.1534 22.1139 96.1592 21.1012 95.5381 20.473ZM8.00093 27.3356L3.86313 23.1976L22.4023 4.6582L26.5403 8.79601L8.00093 27.3356ZM28.9448 56.2149L17.5269 44.4685C15.9205 42.8519 15.2732 40.5149 15.8189 38.3023L16.9706 33.6956C17.1076 33.1506 16.9478 32.5737 16.5502 32.1767L12.1177 27.7443L25.6027 14.2593L27.6717 16.3283C28.2495 16.9058 29.1694 16.9556 29.8063 16.444L31.1204 15.3861C32.9362 14.8784 34.8848 15.3919 36.2147 16.7284L45.0356 25.5492L45.0204 25.5606C44.3065 26.2165 43.7744 27.0462 43.4764 27.9687C42.4847 27.4312 41.3546 27.2042 40.2323 27.317C37.3278 27.6959 35.1668 30.1887 35.2036 33.1176V49.852C32.0211 50.5091 29.5494 53.0217 28.9448 56.2149ZM62.4063 92.0043H35.2036V87.2039H62.4063V92.0043ZM65.6066 72.3118C65.588 74.4032 64.5837 76.3632 62.8969 77.5999L59.7232 80.5158C59.3934 80.8189 59.2057 81.2463 59.2059 81.6941V84.0038H38.4039V83.6709C38.4075 80.9417 36.9026 78.4338 34.4925 77.1531C32.991 76.3866 32.0341 74.8553 32.0033 73.1699V57.6918C32.0095 55.6642 33.291 53.8598 35.2036 53.1862V63.2017H38.4039V33.1174C38.3549 31.8279 39.2766 30.7048 40.5509 30.5015C41.2298 30.4315 41.9067 30.6523 42.4137 31.1094C42.9196 31.5622 43.2074 32.2101 43.2044 32.8892V56.8009H46.4047V29.6889C46.4037 28.3637 47.4772 27.2888 48.8023 27.2878C48.8763 27.2878 48.9501 27.2912 49.0237 27.2978C50.3197 27.5138 51.2536 28.6586 51.2052 29.9715V56.8007H54.4055V34.4893C54.4045 33.1642 55.478 32.0893 56.8031 32.0883C56.8771 32.0883 56.9509 32.0917 57.0245 32.0983C58.3205 32.3143 59.2544 33.459 59.2059 34.7719V56.8007H62.4063V43.5848C64.3188 44.2585 65.6004 46.0629 65.6066 48.0905V72.3118ZM81.0111 35.3816C81.5193 36.9094 81.1083 38.5931 79.9532 39.7148L71.4946 48.9001C70.7627 49.6398 69.827 50.1441 68.8067 50.3487V48.0907C68.8017 44.2903 66.1284 41.016 62.4061 40.2509V34.7722C62.4623 31.7977 60.2563 29.2642 57.3024 28.9106C56.2991 28.8262 55.2912 29.0096 54.3817 29.4418C54.1933 26.6732 52.0578 24.4321 49.3016 24.1101C49.2336 24.1043 49.1666 24.1171 49.0986 24.1139L55.5272 16.6158C57.1439 15.01 59.4808 14.3628 61.6934 14.9078L66.3 16.0595C66.8451 16.1961 67.4218 16.0365 67.819 15.6391L70.7883 12.6698L84.5756 26.8482C83.0987 28.5615 80.0646 32.5433 81.0111 35.3816ZM87.948 25.7259L71.4618 8.77101L75.2403 4.70021L92.131 21.5909L87.948 25.7259Z" fill="black"/>
</g>
<defs>
<clipPath id="clip0">
<rect width="96" height="96" fill="white"/>
</clipPath>
</defs>
</svg>
