<svg width="96" height="96" viewBox="0 0 96 96" fill="none" xmlns="http://www.w3.org/2000/svg">
<g clip-path="url(#clip0)">
<path d="M89.075 34.8406C91.0144 33.2058 92.25 30.7603 92.25 28.0312V24.4688C92.25 19.5579 88.2546 15.5625 83.3438 15.5625C78.4329 15.5625 74.4375 19.5579 74.4375 24.4688V28.0312C74.4375 31.4656 76.3923 34.4502 79.2473 35.9355C76.3499 37.8706 74.4375 41.1687 74.4375 44.9062V55.6875H63.6562C60.2607 55.6875 57.4197 58.1067 56.7664 61.3125H39.2336C38.5803 58.1067 35.7393 55.6875 32.3438 55.6875H21.5625V44.9062C21.5625 41.1687 19.6501 37.8706 16.7527 35.9355C19.6077 34.4502 21.5625 31.4656 21.5625 28.0312V24.4688C21.5625 19.5579 17.5671 15.5625 12.6562 15.5625C7.74536 15.5625 3.75 19.5579 3.75 24.4688V28.0312C3.75 30.7603 4.9856 33.2058 6.92505 34.8406C2.87988 36.3962 0 40.3198 0 44.9062V68.3438C0 71.5239 1.38501 74.3855 3.58154 76.3608C1.5564 76.6685 0 78.4211 0 80.5312C0 82.8574 1.89258 84.75 4.21875 84.75H8.0625V95.9062H10.875V84.75H13.6875V95.9062H16.5V84.75H20.3438C22.6699 84.75 24.5625 82.8574 24.5625 80.5312C24.5625 80.0383 24.4768 79.5652 24.3208 79.125H27.1875V95.9062H30V76.3125H10.7812C6.86719 76.3125 3.60278 73.4758 2.93701 69.75H32.3438C34.6699 69.75 36.5625 71.6426 36.5625 73.9688V95.9062H39.375V73.9688C39.375 72.3867 38.8499 70.9263 37.9651 69.75H43.6875V95.9062H46.5V70.125H49.3125V95.9062H52.125V69.75H58.0349C57.1501 70.9263 56.625 72.3867 56.625 73.9688V95.9062H59.4375V73.9688C59.4375 71.6426 61.3301 69.75 63.6562 69.75H93.063C92.3972 73.4758 89.1328 76.3125 85.2188 76.3125H66V95.9062H68.8125V79.125H71.6792C71.5232 79.5652 71.4375 80.0383 71.4375 80.5312C71.4375 82.8574 73.3301 84.75 75.6562 84.75H79.5V95.9062H82.3125V84.75H85.125V95.9062H87.9375V84.75H91.7812C94.1074 84.75 96 82.8574 96 80.5312C96 78.4211 94.4436 76.6685 92.4185 76.3608C94.615 74.3855 96 71.5239 96 68.3438V44.9062C96 40.3198 93.1201 36.3962 89.075 34.8406ZM20.3438 79.125C21.1194 79.125 21.75 79.7556 21.75 80.5312C21.75 81.3069 21.1194 81.9375 20.3438 81.9375H4.21875C3.44312 81.9375 2.8125 81.3069 2.8125 80.5312C2.8125 79.7556 3.44312 79.125 4.21875 79.125H20.3438ZM93.1875 80.5312C93.1875 81.3069 92.5569 81.9375 91.7812 81.9375H75.6562C74.8806 81.9375 74.25 81.3069 74.25 80.5312C74.25 79.7556 74.8806 79.125 75.6562 79.125H91.7812C92.5569 79.125 93.1875 79.7556 93.1875 80.5312ZM77.25 28.0312V24.4688C77.25 21.1084 79.9834 18.375 83.3438 18.375C86.7041 18.375 89.4375 21.1084 89.4375 24.4688V28.0312C89.4375 31.3916 86.7041 34.125 83.3438 34.125C79.9834 34.125 77.25 31.3916 77.25 28.0312ZM6.5625 28.0312V24.4688C6.5625 21.1084 9.2959 18.375 12.6562 18.375C16.0166 18.375 18.75 21.1084 18.75 24.4688V28.0312C18.75 31.3916 16.0166 34.125 12.6562 34.125C9.2959 34.125 6.5625 31.3916 6.5625 28.0312ZM18.75 66.9375H2.8125V44.9062C2.8125 40.5125 6.38745 36.9375 10.7812 36.9375C15.175 36.9375 18.75 40.5125 18.75 44.9062V49.5H14.0625V45.4688H11.25V57.0938C11.25 60.9712 14.4038 64.125 18.2812 64.125H18.75V66.9375ZM24.375 66.9375H21.5625V64.125H24.375V66.9375ZM18.2812 61.3125C15.9551 61.3125 14.0625 59.4199 14.0625 57.0938V52.3125H18.75V58.5H32.3438C34.177 58.5 35.7415 59.6755 36.3215 61.3125H18.2812ZM68.625 66.9375H27.1875V64.125H68.625V66.9375ZM59.6785 61.3125C60.2585 59.6755 61.823 58.5 63.6562 58.5H77.25V52.3125H81.9375V57.0938C81.9375 59.4199 80.0449 61.3125 77.7188 61.3125H59.6785ZM74.4375 66.9375H71.4375V64.125H74.4375V66.9375ZM93.1875 66.9375H77.25V64.125H77.7188C81.5962 64.125 84.75 60.9712 84.75 57.0938V45.4688H81.9375V49.5H77.25V44.9062C77.25 40.5125 80.825 36.9375 85.2188 36.9375C89.6125 36.9375 93.1875 40.5125 93.1875 44.9062V66.9375Z" fill="black"/>
<path d="M62.5312 15.75H72.5171L62.5312 5.88135V0H24.1875V21.9375H62.5312V15.75ZM59.7188 19.125H27V2.8125H59.7188V7.05615L65.6704 12.9375H59.7188V19.125Z" fill="#E50039"/>
<path d="M68.0623 48.1875V26.25H35.3435V32.2383L27.79 42H35.3435V48.1875H68.0623ZM33.522 39.1875L38.156 33.1992V29.0625H65.2498V45.375H38.156V39.1875H33.522Z" fill="#E50039"/>
<path d="M44.9062 6.65625H47.7188V9.46875H44.9062V6.65625Z" fill="black"/>
<path d="M50.5312 6.65625H53.3438V9.46875H50.5312V6.65625Z" fill="black"/>
<path d="M33.6562 6.65625H36.4688V9.46875H33.6562V6.65625Z" fill="black"/>
<path d="M39.2812 6.65625H42.0938V9.46875H39.2812V6.65625Z" fill="black"/>
<path d="M50.5312 12.4688H53.3438V15.2812H50.5312V12.4688Z" fill="black"/>
<path d="M44.9062 12.4688H47.7188V15.2812H44.9062V12.4688Z" fill="black"/>
<path d="M39.2812 12.4688H42.0938V15.2812H39.2812V12.4688Z" fill="black"/>
<path d="M33.6562 12.4688H36.4688V15.2812H33.6562V12.4688Z" fill="black"/>
<path d="M50.1562 33.1875H52.9688V36H50.1562V33.1875Z" fill="black"/>
<path d="M55.7812 33.1875H58.5938V36H55.7812V33.1875Z" fill="black"/>
<path d="M44.5312 33.1875H47.3438V36H44.5312V33.1875Z" fill="black"/>
<path d="M50.1562 39H52.9688V41.8125H50.1562V39Z" fill="black"/>
<path d="M44.5312 39H47.3438V41.8125H44.5312V39Z" fill="black"/>
<path d="M55.7812 39H58.5938V41.8125H55.7812V39Z" fill="black"/>
</g>
<defs>
<clipPath id="clip0">
<rect width="96" height="96" fill="white"/>
</clipPath>
</defs>
</svg>
